\relax 
\providecommand\babel@aux[2]{}
\@nameuse{bbl@beforestart}
\catcode `"\active 
\citation{seeman_nucleic_1982}
\citation{Winfree1998SimulationsOC}
\citation{ming2001dna}
\bibstyle{unsrt}
\bibdata{bib.bib}
\bibcite{seeman_nucleic_1982}{{1}{}{{}}{{}}}
\bibcite{Winfree1998SimulationsOC}{{2}{}{{}}{{}}}
\bibcite{ming2001dna}{{3}{}{{}}{{}}}
\babel@aux{ngerman}{}
\pgfsyspdfmark {pgfid1}{1799790}{816750}
\providecommand\NAT@force@numbers{}\NAT@force@numbers
\gdef \@abspage@last{1}
