\relax 
\providecommand\babel@aux[2]{}
\@nameuse{bbl@beforestart}
\catcode `"\active 
\citation{wojtkiewicz2015social}
\citation{adewole2016evolution}
\citation{10.1145/3558583.3558855}
\citation{10.1145/3558583.3558855}
\citation{kugele2020efficient}
\citation{Sadouk18}
\bibstyle{unsrt}
\bibdata{references}
\bibcite{wojtkiewicz2015social}{{1}{}{{}}{{}}}
\bibcite{adewole2016evolution}{{2}{}{{}}{{}}}
\bibcite{10.1145/3558583.3558855}{{3}{}{{}}{{}}}
\bibcite{kugele2020efficient}{{4}{}{{}}{{}}}
\bibcite{Sadouk18}{{5}{}{{}}{{}}}
\babel@aux{ngerman}{}
\pgfsyspdfmark {pgfid1}{1799790}{816750}
\providecommand\NAT@force@numbers{}\NAT@force@numbers
\gdef \@abspage@last{1}
