PWD c:/Users/Bexma/Documents/Uni/MA/Sem4/AktZukNetzwTechno/nano_seminar/paper/acmart-primary/samples
INPUT c:/texlive/2023/texmf.cnf
INPUT c:/texlive/2023/texmf-dist/web2c/texmf.cnf
INPUT c:/texlive/2023/texmf-var/web2c/pdftex/pdflatex.fmt
INPUT c:/Users/Bexma/Documents/Uni/MA/Sem4/AktZukNetzwTechno/nano_seminar/paper/acmart-primary/samples/sample-sigconf.tex
OUTPUT sample-sigconf.log
INPUT c:/texlive/2023/texmf-dist/tex/latex/acmart/acmart.cls
INPUT c:/texlive/2023/texmf-dist/tex/latex/acmart/acmart.cls
INPUT c:/texlive/2023/texmf-dist/tex/latex/acmart/acmart.cls
INPUT c:/texlive/2023/texmf-dist/tex/latex/acmart/acmart.cls
INPUT c:/texlive/2023/texmf-dist/tex/latex/acmart/acmart.cls
INPUT c:/texlive/2023/texmf-dist/tex/latex/acmart/acmart.cls
INPUT c:/texlive/2023/texmf-dist/tex/latex/acmart/acmart.cls
INPUT c:/texlive/2023/texmf-dist/tex/latex/acmart/acmart.cls
INPUT c:/texlive/2023/texmf-dist/tex/latex/acmart/acmart.cls
INPUT c:/texlive/2023/texmf-dist/tex/latex/acmart/acmart.cls
INPUT c:/texlive/2023/texmf-dist/tex/latex/acmart/acmart.cls
INPUT c:/texlive/2023/texmf-dist/tex/latex/xkeyval/xkeyval.sty
INPUT c:/texlive/2023/texmf-dist/tex/latex/xkeyval/xkeyval.sty
INPUT c:/texlive/2023/texmf-dist/tex/latex/xkeyval/xkeyval.sty
INPUT c:/texlive/2023/texmf-dist/tex/latex/xkeyval/xkeyval.sty
INPUT c:/texlive/2023/texmf-dist/tex/latex/xkeyval/xkeyval.sty
INPUT c:/texlive/2023/texmf-dist/tex/latex/xkeyval/xkeyval.sty
INPUT c:/texlive/2023/texmf-dist/tex/latex/xkeyval/xkeyval.sty
INPUT c:/texlive/2023/texmf-dist/tex/latex/xkeyval/xkeyval.sty
INPUT c:/texlive/2023/texmf-dist/tex/latex/xkeyval/xkeyval.sty
INPUT c:/texlive/2023/texmf-dist/tex/latex/xkeyval/xkeyval.sty
INPUT c:/texlive/2023/texmf-dist/tex/latex/xkeyval/xkeyval.sty
INPUT c:/texlive/2023/texmf-dist/tex/generic/xkeyval/xkeyval.tex
INPUT c:/texlive/2023/texmf-dist/tex/generic/xkeyval/xkvutils.tex
INPUT c:/texlive/2023/texmf-dist/tex/generic/xkeyval/keyval.tex
INPUT c:/texlive/2023/texmf-dist/tex/generic/xstring/xstring.sty
INPUT c:/texlive/2023/texmf-dist/tex/generic/xstring/xstring.sty
INPUT c:/texlive/2023/texmf-dist/tex/generic/xstring/xstring.sty
INPUT c:/texlive/2023/texmf-dist/tex/generic/xstring/xstring.sty
INPUT c:/texlive/2023/texmf-dist/tex/generic/xstring/xstring.sty
INPUT c:/texlive/2023/texmf-dist/tex/generic/xstring/xstring.sty
INPUT c:/texlive/2023/texmf-dist/tex/generic/xstring/xstring.sty
INPUT c:/texlive/2023/texmf-dist/tex/generic/xstring/xstring.sty
INPUT c:/texlive/2023/texmf-dist/tex/generic/xstring/xstring.sty
INPUT c:/texlive/2023/texmf-dist/tex/generic/xstring/xstring.sty
INPUT c:/texlive/2023/texmf-dist/tex/generic/xstring/xstring.sty
INPUT c:/texlive/2023/texmf-dist/tex/generic/xstring/xstring.tex
INPUT c:/texlive/2023/texmf-dist/tex/generic/iftex/iftex.sty
INPUT c:/texlive/2023/texmf-dist/tex/generic/iftex/iftex.sty
INPUT c:/texlive/2023/texmf-dist/tex/generic/iftex/iftex.sty
INPUT c:/texlive/2023/texmf-dist/tex/generic/iftex/iftex.sty
INPUT c:/texlive/2023/texmf-dist/tex/generic/iftex/iftex.sty
INPUT c:/texlive/2023/texmf-dist/tex/generic/iftex/iftex.sty
INPUT c:/texlive/2023/texmf-dist/tex/generic/iftex/iftex.sty
INPUT c:/texlive/2023/texmf-dist/tex/generic/iftex/iftex.sty
INPUT c:/texlive/2023/texmf-dist/tex/generic/iftex/iftex.sty
INPUT c:/texlive/2023/texmf-dist/tex/generic/iftex/iftex.sty
INPUT c:/texlive/2023/texmf-dist/tex/generic/iftex/iftex.sty
INPUT c:/texlive/2023/texmf-dist/tex/latex/amscls/amsart.cls
INPUT c:/texlive/2023/texmf-dist/tex/latex/amscls/amsart.cls
INPUT c:/texlive/2023/texmf-dist/tex/latex/amscls/amsart.cls
INPUT c:/texlive/2023/texmf-dist/tex/latex/amscls/amsart.cls
INPUT c:/texlive/2023/texmf-dist/tex/latex/amscls/amsart.cls
INPUT c:/texlive/2023/texmf-dist/tex/latex/amscls/amsart.cls
INPUT c:/texlive/2023/texmf-dist/tex/latex/amscls/amsart.cls
INPUT c:/texlive/2023/texmf-dist/tex/latex/amscls/amsart.cls
INPUT c:/texlive/2023/texmf-dist/tex/latex/amscls/amsart.cls
INPUT c:/texlive/2023/texmf-dist/tex/latex/amscls/amsart.cls
INPUT c:/texlive/2023/texmf-dist/tex/latex/amscls/amsart.cls
INPUT c:/texlive/2023/texmf-dist/tex/latex/amsmath/amsmath.sty
INPUT c:/texlive/2023/texmf-dist/tex/latex/amsmath/amsmath.sty
INPUT c:/texlive/2023/texmf-dist/tex/latex/amsmath/amsmath.sty
INPUT c:/texlive/2023/texmf-dist/tex/latex/amsmath/amsmath.sty
INPUT c:/texlive/2023/texmf-dist/tex/latex/amsmath/amsmath.sty
INPUT c:/texlive/2023/texmf-dist/tex/latex/amsmath/amsmath.sty
INPUT c:/texlive/2023/texmf-dist/fonts/map/fontname/texfonts.map
INPUT c:/texlive/2023/texmf-dist/fonts/tfm/public/cm/cmr9.tfm
INPUT c:/texlive/2023/texmf-dist/tex/latex/amsmath/amsmath.sty
INPUT c:/texlive/2023/texmf-dist/tex/latex/amsmath/amsmath.sty
INPUT c:/texlive/2023/texmf-dist/tex/latex/amsmath/amsmath.sty
INPUT c:/texlive/2023/texmf-dist/tex/latex/amsmath/amsmath.sty
INPUT c:/texlive/2023/texmf-dist/tex/latex/amsmath/amsmath.sty
INPUT c:/texlive/2023/texmf-dist/tex/latex/amsmath/amsmath.sty
INPUT c:/texlive/2023/texmf-dist/tex/latex/amsmath/amsmath.sty
INPUT c:/texlive/2023/texmf-dist/tex/latex/amsmath/amsmath.sty
INPUT c:/texlive/2023/texmf-dist/tex/latex/amsmath/amsmath.sty
INPUT c:/texlive/2023/texmf-dist/tex/latex/amsmath/amsmath.sty
INPUT c:/texlive/2023/texmf-dist/tex/latex/amsmath/amsmath.sty
INPUT c:/texlive/2023/texmf-dist/tex/latex/amsmath/amsopn.sty
INPUT c:/texlive/2023/texmf-dist/tex/latex/amsmath/amsopn.sty
INPUT c:/texlive/2023/texmf-dist/tex/latex/amsmath/amstext.sty
INPUT c:/texlive/2023/texmf-dist/tex/latex/amsmath/amstext.sty
INPUT c:/texlive/2023/texmf-dist/tex/latex/amsmath/amstext.sty
INPUT c:/texlive/2023/texmf-dist/tex/latex/amsmath/amstext.sty
INPUT c:/texlive/2023/texmf-dist/tex/latex/amsmath/amstext.sty
INPUT c:/texlive/2023/texmf-dist/tex/latex/amsmath/amstext.sty
INPUT c:/texlive/2023/texmf-dist/tex/latex/amsmath/amstext.sty
INPUT c:/texlive/2023/texmf-dist/tex/latex/amsmath/amstext.sty
INPUT c:/texlive/2023/texmf-dist/tex/latex/amsmath/amstext.sty
INPUT c:/texlive/2023/texmf-dist/tex/latex/amsmath/amstext.sty
INPUT c:/texlive/2023/texmf-dist/tex/latex/amsmath/amstext.sty
INPUT c:/texlive/2023/texmf-dist/tex/latex/amsmath/amsgen.sty
INPUT c:/texlive/2023/texmf-dist/tex/latex/amsmath/amsgen.sty
INPUT c:/texlive/2023/texmf-dist/tex/latex/amsmath/amsgen.sty
INPUT c:/texlive/2023/texmf-dist/tex/latex/amsmath/amsgen.sty
INPUT c:/texlive/2023/texmf-dist/tex/latex/amsmath/amsgen.sty
INPUT c:/texlive/2023/texmf-dist/tex/latex/amsmath/amsgen.sty
INPUT c:/texlive/2023/texmf-dist/tex/latex/amsmath/amsgen.sty
INPUT c:/texlive/2023/texmf-dist/tex/latex/amsmath/amsgen.sty
INPUT c:/texlive/2023/texmf-dist/tex/latex/amsmath/amsgen.sty
INPUT c:/texlive/2023/texmf-dist/tex/latex/amsmath/amsgen.sty
INPUT c:/texlive/2023/texmf-dist/tex/latex/amsmath/amsgen.sty
INPUT c:/texlive/2023/texmf-dist/tex/latex/amsmath/amsbsy.sty
INPUT c:/texlive/2023/texmf-dist/tex/latex/amsmath/amsbsy.sty
INPUT c:/texlive/2023/texmf-dist/tex/latex/amsmath/amsbsy.sty
INPUT c:/texlive/2023/texmf-dist/tex/latex/amsmath/amsbsy.sty
INPUT c:/texlive/2023/texmf-dist/tex/latex/amsmath/amsbsy.sty
INPUT c:/texlive/2023/texmf-dist/tex/latex/amsmath/amsbsy.sty
INPUT c:/texlive/2023/texmf-dist/tex/latex/amsmath/amsbsy.sty
INPUT c:/texlive/2023/texmf-dist/tex/latex/amsmath/amsbsy.sty
INPUT c:/texlive/2023/texmf-dist/tex/latex/amsmath/amsbsy.sty
INPUT c:/texlive/2023/texmf-dist/tex/latex/amsmath/amsbsy.sty
INPUT c:/texlive/2023/texmf-dist/tex/latex/amsmath/amsbsy.sty
INPUT c:/texlive/2023/texmf-dist/tex/latex/amsmath/amsgen.sty
INPUT c:/texlive/2023/texmf-dist/tex/latex/amsmath/amsopn.sty
INPUT c:/texlive/2023/texmf-dist/tex/latex/amsmath/amsopn.sty
INPUT c:/texlive/2023/texmf-dist/tex/latex/amsmath/amsopn.sty
INPUT c:/texlive/2023/texmf-dist/tex/latex/amsmath/amsopn.sty
INPUT c:/texlive/2023/texmf-dist/tex/latex/amsmath/amsopn.sty
INPUT c:/texlive/2023/texmf-dist/tex/latex/amsmath/amsopn.sty
INPUT c:/texlive/2023/texmf-dist/tex/latex/amsmath/amsopn.sty
INPUT c:/texlive/2023/texmf-dist/tex/latex/amsmath/amsopn.sty
INPUT c:/texlive/2023/texmf-dist/tex/latex/amsmath/amsopn.sty
INPUT c:/texlive/2023/texmf-dist/tex/latex/amsmath/amsopn.sty
INPUT c:/texlive/2023/texmf-dist/tex/latex/amsmath/amsopn.sty
INPUT c:/texlive/2023/texmf-dist/tex/latex/amsmath/amsgen.sty
INPUT c:/texlive/2023/texmf-dist/tex/latex/amsfonts/umsa.fd
INPUT c:/texlive/2023/texmf-dist/tex/latex/amsfonts/umsa.fd
INPUT c:/texlive/2023/texmf-dist/tex/latex/amsfonts/umsa.fd
INPUT c:/texlive/2023/texmf-dist/tex/latex/amsfonts/umsa.fd
INPUT c:/texlive/2023/texmf-dist/tex/latex/amsfonts/amsfonts.sty
INPUT c:/texlive/2023/texmf-dist/tex/latex/amsfonts/amsfonts.sty
INPUT c:/texlive/2023/texmf-dist/tex/latex/amsfonts/amsfonts.sty
INPUT c:/texlive/2023/texmf-dist/tex/latex/amsfonts/amsfonts.sty
INPUT c:/texlive/2023/texmf-dist/tex/latex/amsfonts/amsfonts.sty
INPUT c:/texlive/2023/texmf-dist/tex/latex/amsfonts/amsfonts.sty
INPUT c:/texlive/2023/texmf-dist/tex/latex/amsfonts/amsfonts.sty
INPUT c:/texlive/2023/texmf-dist/tex/latex/amsfonts/amsfonts.sty
INPUT c:/texlive/2023/texmf-dist/tex/latex/amsfonts/amsfonts.sty
INPUT c:/texlive/2023/texmf-dist/tex/latex/amsfonts/amsfonts.sty
INPUT c:/texlive/2023/texmf-dist/tex/latex/amsfonts/amsfonts.sty
INPUT c:/texlive/2023/texmf-dist/tex/latex/microtype/microtype.sty
INPUT c:/texlive/2023/texmf-dist/tex/latex/microtype/microtype.sty
INPUT c:/texlive/2023/texmf-dist/tex/latex/microtype/microtype.sty
INPUT c:/texlive/2023/texmf-dist/tex/latex/microtype/microtype.sty
INPUT c:/texlive/2023/texmf-dist/tex/latex/microtype/microtype.sty
INPUT c:/texlive/2023/texmf-dist/tex/latex/microtype/microtype.sty
INPUT c:/texlive/2023/texmf-dist/tex/latex/microtype/microtype.sty
INPUT c:/texlive/2023/texmf-dist/tex/latex/microtype/microtype.sty
INPUT c:/texlive/2023/texmf-dist/tex/latex/microtype/microtype.sty
INPUT c:/texlive/2023/texmf-dist/tex/latex/microtype/microtype.sty
INPUT c:/texlive/2023/texmf-dist/tex/latex/microtype/microtype.sty
INPUT c:/texlive/2023/texmf-dist/tex/latex/graphics/keyval.sty
INPUT c:/texlive/2023/texmf-dist/tex/latex/etoolbox/etoolbox.sty
INPUT c:/texlive/2023/texmf-dist/tex/latex/etoolbox/etoolbox.sty
INPUT c:/texlive/2023/texmf-dist/tex/latex/etoolbox/etoolbox.sty
INPUT c:/texlive/2023/texmf-dist/tex/latex/etoolbox/etoolbox.sty
INPUT c:/texlive/2023/texmf-dist/tex/latex/etoolbox/etoolbox.sty
INPUT c:/texlive/2023/texmf-dist/tex/latex/etoolbox/etoolbox.sty
INPUT c:/texlive/2023/texmf-dist/tex/latex/etoolbox/etoolbox.sty
INPUT c:/texlive/2023/texmf-dist/tex/latex/etoolbox/etoolbox.sty
INPUT c:/texlive/2023/texmf-dist/tex/latex/etoolbox/etoolbox.sty
INPUT c:/texlive/2023/texmf-dist/tex/latex/etoolbox/etoolbox.sty
INPUT c:/texlive/2023/texmf-dist/tex/latex/etoolbox/etoolbox.sty
INPUT c:/texlive/2023/texmf-dist/tex/latex/microtype/microtype-pdftex.def
INPUT c:/texlive/2023/texmf-dist/tex/latex/microtype/microtype-pdftex.def
INPUT c:/texlive/2023/texmf-dist/tex/latex/microtype/microtype-pdftex.def
INPUT c:/texlive/2023/texmf-dist/tex/latex/microtype/microtype-pdftex.def
INPUT c:/texlive/2023/texmf-dist/tex/latex/microtype/microtype.cfg
INPUT c:/texlive/2023/texmf-dist/tex/latex/microtype/microtype.cfg
INPUT c:/texlive/2023/texmf-dist/tex/latex/microtype/microtype.cfg
INPUT c:/texlive/2023/texmf-dist/tex/latex/microtype/microtype.cfg
INPUT c:/texlive/2023/texmf-dist/tex/latex/microtype/microtype.cfg
INPUT c:/texlive/2023/texmf-dist/tex/latex/microtype/microtype.cfg
INPUT c:/texlive/2023/texmf-dist/tex/latex/etoolbox/etoolbox.sty
INPUT c:/texlive/2023/texmf-dist/tex/latex/booktabs/booktabs.sty
INPUT c:/texlive/2023/texmf-dist/tex/latex/booktabs/booktabs.sty
INPUT c:/texlive/2023/texmf-dist/tex/latex/booktabs/booktabs.sty
INPUT c:/texlive/2023/texmf-dist/tex/latex/booktabs/booktabs.sty
INPUT c:/texlive/2023/texmf-dist/tex/latex/booktabs/booktabs.sty
INPUT c:/texlive/2023/texmf-dist/tex/latex/booktabs/booktabs.sty
INPUT c:/texlive/2023/texmf-dist/tex/latex/booktabs/booktabs.sty
INPUT c:/texlive/2023/texmf-dist/tex/latex/booktabs/booktabs.sty
INPUT c:/texlive/2023/texmf-dist/tex/latex/booktabs/booktabs.sty
INPUT c:/texlive/2023/texmf-dist/tex/latex/booktabs/booktabs.sty
INPUT c:/texlive/2023/texmf-dist/tex/latex/booktabs/booktabs.sty
INPUT c:/texlive/2023/texmf-dist/tex/latex/refcount/refcount.sty
INPUT c:/texlive/2023/texmf-dist/tex/latex/refcount/refcount.sty
INPUT c:/texlive/2023/texmf-dist/tex/latex/refcount/refcount.sty
INPUT c:/texlive/2023/texmf-dist/tex/latex/refcount/refcount.sty
INPUT c:/texlive/2023/texmf-dist/tex/latex/refcount/refcount.sty
INPUT c:/texlive/2023/texmf-dist/tex/latex/refcount/refcount.sty
INPUT c:/texlive/2023/texmf-dist/tex/latex/refcount/refcount.sty
INPUT c:/texlive/2023/texmf-dist/tex/latex/refcount/refcount.sty
INPUT c:/texlive/2023/texmf-dist/tex/latex/refcount/refcount.sty
INPUT c:/texlive/2023/texmf-dist/tex/latex/refcount/refcount.sty
INPUT c:/texlive/2023/texmf-dist/tex/latex/refcount/refcount.sty
INPUT c:/texlive/2023/texmf-dist/tex/generic/ltxcmds/ltxcmds.sty
INPUT c:/texlive/2023/texmf-dist/tex/generic/ltxcmds/ltxcmds.sty
INPUT c:/texlive/2023/texmf-dist/tex/generic/ltxcmds/ltxcmds.sty
INPUT c:/texlive/2023/texmf-dist/tex/generic/ltxcmds/ltxcmds.sty
INPUT c:/texlive/2023/texmf-dist/tex/generic/ltxcmds/ltxcmds.sty
INPUT c:/texlive/2023/texmf-dist/tex/generic/ltxcmds/ltxcmds.sty
INPUT c:/texlive/2023/texmf-dist/tex/generic/ltxcmds/ltxcmds.sty
INPUT c:/texlive/2023/texmf-dist/tex/generic/ltxcmds/ltxcmds.sty
INPUT c:/texlive/2023/texmf-dist/tex/generic/ltxcmds/ltxcmds.sty
INPUT c:/texlive/2023/texmf-dist/tex/generic/ltxcmds/ltxcmds.sty
INPUT c:/texlive/2023/texmf-dist/tex/generic/ltxcmds/ltxcmds.sty
INPUT c:/texlive/2023/texmf-dist/tex/generic/infwarerr/infwarerr.sty
INPUT c:/texlive/2023/texmf-dist/tex/generic/infwarerr/infwarerr.sty
INPUT c:/texlive/2023/texmf-dist/tex/generic/infwarerr/infwarerr.sty
INPUT c:/texlive/2023/texmf-dist/tex/generic/infwarerr/infwarerr.sty
INPUT c:/texlive/2023/texmf-dist/tex/generic/infwarerr/infwarerr.sty
INPUT c:/texlive/2023/texmf-dist/tex/generic/infwarerr/infwarerr.sty
INPUT c:/texlive/2023/texmf-dist/tex/generic/infwarerr/infwarerr.sty
INPUT c:/texlive/2023/texmf-dist/tex/generic/infwarerr/infwarerr.sty
INPUT c:/texlive/2023/texmf-dist/tex/generic/infwarerr/infwarerr.sty
INPUT c:/texlive/2023/texmf-dist/tex/generic/infwarerr/infwarerr.sty
INPUT c:/texlive/2023/texmf-dist/tex/generic/infwarerr/infwarerr.sty
INPUT c:/texlive/2023/texmf-dist/tex/latex/totpages/totpages.sty
INPUT c:/texlive/2023/texmf-dist/tex/latex/totpages/totpages.sty
INPUT c:/texlive/2023/texmf-dist/tex/latex/totpages/totpages.sty
INPUT c:/texlive/2023/texmf-dist/tex/latex/totpages/totpages.sty
INPUT c:/texlive/2023/texmf-dist/tex/latex/totpages/totpages.sty
INPUT c:/texlive/2023/texmf-dist/tex/latex/totpages/totpages.sty
INPUT c:/texlive/2023/texmf-dist/tex/latex/totpages/totpages.sty
INPUT c:/texlive/2023/texmf-dist/tex/latex/totpages/totpages.sty
INPUT c:/texlive/2023/texmf-dist/tex/latex/totpages/totpages.sty
INPUT c:/texlive/2023/texmf-dist/tex/latex/totpages/totpages.sty
INPUT c:/texlive/2023/texmf-dist/tex/latex/totpages/totpages.sty
INPUT c:/texlive/2023/texmf-dist/tex/latex/everyshi/everyshi.sty
INPUT c:/texlive/2023/texmf-dist/tex/latex/everyshi/everyshi.sty
INPUT c:/texlive/2023/texmf-dist/tex/latex/everyshi/everyshi.sty
INPUT c:/texlive/2023/texmf-dist/tex/latex/everyshi/everyshi.sty
INPUT c:/texlive/2023/texmf-dist/tex/latex/everyshi/everyshi.sty
INPUT c:/texlive/2023/texmf-dist/tex/latex/everyshi/everyshi.sty
INPUT c:/texlive/2023/texmf-dist/tex/latex/everyshi/everyshi.sty
INPUT c:/texlive/2023/texmf-dist/tex/latex/everyshi/everyshi.sty
INPUT c:/texlive/2023/texmf-dist/tex/latex/everyshi/everyshi.sty
INPUT c:/texlive/2023/texmf-dist/tex/latex/everyshi/everyshi.sty
INPUT c:/texlive/2023/texmf-dist/tex/latex/everyshi/everyshi.sty
INPUT c:/texlive/2023/texmf-dist/tex/latex/graphics/keyval.sty
INPUT c:/texlive/2023/texmf-dist/tex/latex/environ/environ.sty
INPUT c:/texlive/2023/texmf-dist/tex/latex/environ/environ.sty
INPUT c:/texlive/2023/texmf-dist/tex/latex/environ/environ.sty
INPUT c:/texlive/2023/texmf-dist/tex/latex/environ/environ.sty
INPUT c:/texlive/2023/texmf-dist/tex/latex/environ/environ.sty
INPUT c:/texlive/2023/texmf-dist/tex/latex/environ/environ.sty
INPUT c:/texlive/2023/texmf-dist/tex/latex/environ/environ.sty
INPUT c:/texlive/2023/texmf-dist/tex/latex/environ/environ.sty
INPUT c:/texlive/2023/texmf-dist/tex/latex/environ/environ.sty
INPUT c:/texlive/2023/texmf-dist/tex/latex/environ/environ.sty
INPUT c:/texlive/2023/texmf-dist/tex/latex/environ/environ.sty
INPUT c:/texlive/2023/texmf-dist/tex/latex/trimspaces/trimspaces.sty
INPUT c:/texlive/2023/texmf-dist/tex/latex/trimspaces/trimspaces.sty
INPUT c:/texlive/2023/texmf-dist/tex/latex/trimspaces/trimspaces.sty
INPUT c:/texlive/2023/texmf-dist/tex/latex/trimspaces/trimspaces.sty
INPUT c:/texlive/2023/texmf-dist/tex/latex/trimspaces/trimspaces.sty
INPUT c:/texlive/2023/texmf-dist/tex/latex/trimspaces/trimspaces.sty
INPUT c:/texlive/2023/texmf-dist/tex/latex/trimspaces/trimspaces.sty
INPUT c:/texlive/2023/texmf-dist/tex/latex/trimspaces/trimspaces.sty
INPUT c:/texlive/2023/texmf-dist/tex/latex/trimspaces/trimspaces.sty
INPUT c:/texlive/2023/texmf-dist/tex/latex/trimspaces/trimspaces.sty
INPUT c:/texlive/2023/texmf-dist/tex/latex/trimspaces/trimspaces.sty
INPUT c:/texlive/2023/texmf-dist/tex/latex/textcase/textcase.sty
INPUT c:/texlive/2023/texmf-dist/tex/latex/textcase/textcase.sty
INPUT c:/texlive/2023/texmf-dist/tex/latex/textcase/textcase.sty
INPUT c:/texlive/2023/texmf-dist/tex/latex/textcase/textcase.sty
INPUT c:/texlive/2023/texmf-dist/tex/latex/textcase/textcase.sty
INPUT c:/texlive/2023/texmf-dist/tex/latex/textcase/textcase.sty
INPUT c:/texlive/2023/texmf-dist/tex/latex/textcase/textcase.sty
INPUT c:/texlive/2023/texmf-dist/tex/latex/textcase/textcase.sty
INPUT c:/texlive/2023/texmf-dist/tex/latex/textcase/textcase.sty
INPUT c:/texlive/2023/texmf-dist/tex/latex/textcase/textcase.sty
INPUT c:/texlive/2023/texmf-dist/tex/latex/textcase/textcase.sty
INPUT c:/texlive/2023/texmf-dist/tex/latex/natbib/natbib.sty
INPUT c:/texlive/2023/texmf-dist/tex/latex/natbib/natbib.sty
INPUT c:/texlive/2023/texmf-dist/tex/latex/natbib/natbib.sty
INPUT c:/texlive/2023/texmf-dist/tex/latex/natbib/natbib.sty
INPUT c:/texlive/2023/texmf-dist/tex/latex/natbib/natbib.sty
INPUT c:/texlive/2023/texmf-dist/tex/latex/natbib/natbib.sty
INPUT c:/texlive/2023/texmf-dist/tex/latex/natbib/natbib.sty
INPUT c:/texlive/2023/texmf-dist/tex/latex/natbib/natbib.sty
INPUT c:/texlive/2023/texmf-dist/tex/latex/natbib/natbib.sty
INPUT c:/texlive/2023/texmf-dist/tex/latex/natbib/natbib.sty
INPUT c:/texlive/2023/texmf-dist/tex/latex/natbib/natbib.sty
INPUT c:/texlive/2023/texmf-dist/tex/latex/hyperxmp/hyperxmp.sty
INPUT c:/texlive/2023/texmf-dist/tex/latex/hyperxmp/hyperxmp.sty
INPUT c:/texlive/2023/texmf-dist/tex/latex/hyperxmp/hyperxmp.sty
INPUT c:/texlive/2023/texmf-dist/tex/latex/hyperxmp/hyperxmp.sty
INPUT c:/texlive/2023/texmf-dist/tex/latex/hyperxmp/hyperxmp.sty
INPUT c:/texlive/2023/texmf-dist/tex/latex/hyperxmp/hyperxmp.sty
INPUT c:/texlive/2023/texmf-dist/tex/latex/hyperxmp/hyperxmp.sty
INPUT c:/texlive/2023/texmf-dist/tex/latex/hyperxmp/hyperxmp.sty
INPUT c:/texlive/2023/texmf-dist/tex/latex/hyperxmp/hyperxmp.sty
INPUT c:/texlive/2023/texmf-dist/tex/latex/hyperxmp/hyperxmp.sty
INPUT c:/texlive/2023/texmf-dist/tex/latex/hyperxmp/hyperxmp.sty
INPUT c:/texlive/2023/texmf-dist/tex/latex/kvoptions/kvoptions.sty
INPUT c:/texlive/2023/texmf-dist/tex/latex/kvoptions/kvoptions.sty
INPUT c:/texlive/2023/texmf-dist/tex/latex/kvoptions/kvoptions.sty
INPUT c:/texlive/2023/texmf-dist/tex/latex/kvoptions/kvoptions.sty
INPUT c:/texlive/2023/texmf-dist/tex/latex/kvoptions/kvoptions.sty
INPUT c:/texlive/2023/texmf-dist/tex/latex/kvoptions/kvoptions.sty
INPUT c:/texlive/2023/texmf-dist/tex/latex/kvoptions/kvoptions.sty
INPUT c:/texlive/2023/texmf-dist/tex/latex/kvoptions/kvoptions.sty
INPUT c:/texlive/2023/texmf-dist/tex/latex/kvoptions/kvoptions.sty
INPUT c:/texlive/2023/texmf-dist/tex/latex/kvoptions/kvoptions.sty
INPUT c:/texlive/2023/texmf-dist/tex/latex/kvoptions/kvoptions.sty
INPUT c:/texlive/2023/texmf-dist/tex/generic/ltxcmds/ltxcmds.sty
INPUT c:/texlive/2023/texmf-dist/tex/latex/kvsetkeys/kvsetkeys.sty
INPUT c:/texlive/2023/texmf-dist/tex/latex/kvsetkeys/kvsetkeys.sty
INPUT c:/texlive/2023/texmf-dist/tex/latex/kvsetkeys/kvsetkeys.sty
INPUT c:/texlive/2023/texmf-dist/tex/latex/kvsetkeys/kvsetkeys.sty
INPUT c:/texlive/2023/texmf-dist/tex/latex/kvsetkeys/kvsetkeys.sty
INPUT c:/texlive/2023/texmf-dist/tex/latex/kvsetkeys/kvsetkeys.sty
INPUT c:/texlive/2023/texmf-dist/tex/latex/kvsetkeys/kvsetkeys.sty
INPUT c:/texlive/2023/texmf-dist/tex/latex/kvsetkeys/kvsetkeys.sty
INPUT c:/texlive/2023/texmf-dist/tex/latex/kvsetkeys/kvsetkeys.sty
INPUT c:/texlive/2023/texmf-dist/tex/latex/kvsetkeys/kvsetkeys.sty
INPUT c:/texlive/2023/texmf-dist/tex/latex/kvsetkeys/kvsetkeys.sty
INPUT c:/texlive/2023/texmf-dist/tex/generic/pdfescape/pdfescape.sty
INPUT c:/texlive/2023/texmf-dist/tex/generic/pdfescape/pdfescape.sty
INPUT c:/texlive/2023/texmf-dist/tex/generic/pdfescape/pdfescape.sty
INPUT c:/texlive/2023/texmf-dist/tex/generic/pdfescape/pdfescape.sty
INPUT c:/texlive/2023/texmf-dist/tex/generic/pdfescape/pdfescape.sty
INPUT c:/texlive/2023/texmf-dist/tex/generic/pdfescape/pdfescape.sty
INPUT c:/texlive/2023/texmf-dist/tex/generic/pdfescape/pdfescape.sty
INPUT c:/texlive/2023/texmf-dist/tex/generic/pdfescape/pdfescape.sty
INPUT c:/texlive/2023/texmf-dist/tex/generic/pdfescape/pdfescape.sty
INPUT c:/texlive/2023/texmf-dist/tex/generic/pdfescape/pdfescape.sty
INPUT c:/texlive/2023/texmf-dist/tex/generic/pdfescape/pdfescape.sty
INPUT c:/texlive/2023/texmf-dist/tex/generic/ltxcmds/ltxcmds.sty
INPUT c:/texlive/2023/texmf-dist/tex/generic/pdftexcmds/pdftexcmds.sty
INPUT c:/texlive/2023/texmf-dist/tex/generic/pdftexcmds/pdftexcmds.sty
INPUT c:/texlive/2023/texmf-dist/tex/generic/pdftexcmds/pdftexcmds.sty
INPUT c:/texlive/2023/texmf-dist/tex/generic/pdftexcmds/pdftexcmds.sty
INPUT c:/texlive/2023/texmf-dist/tex/generic/pdftexcmds/pdftexcmds.sty
INPUT c:/texlive/2023/texmf-dist/tex/generic/pdftexcmds/pdftexcmds.sty
INPUT c:/texlive/2023/texmf-dist/tex/generic/pdftexcmds/pdftexcmds.sty
INPUT c:/texlive/2023/texmf-dist/tex/generic/pdftexcmds/pdftexcmds.sty
INPUT c:/texlive/2023/texmf-dist/tex/generic/pdftexcmds/pdftexcmds.sty
INPUT c:/texlive/2023/texmf-dist/tex/generic/pdftexcmds/pdftexcmds.sty
INPUT c:/texlive/2023/texmf-dist/tex/generic/pdftexcmds/pdftexcmds.sty
INPUT c:/texlive/2023/texmf-dist/tex/generic/infwarerr/infwarerr.sty
INPUT c:/texlive/2023/texmf-dist/tex/generic/iftex/iftex.sty
INPUT c:/texlive/2023/texmf-dist/tex/generic/ltxcmds/ltxcmds.sty
INPUT c:/texlive/2023/texmf-dist/tex/generic/stringenc/stringenc.sty
INPUT c:/texlive/2023/texmf-dist/tex/generic/stringenc/stringenc.sty
INPUT c:/texlive/2023/texmf-dist/tex/generic/stringenc/stringenc.sty
INPUT c:/texlive/2023/texmf-dist/tex/generic/stringenc/stringenc.sty
INPUT c:/texlive/2023/texmf-dist/tex/generic/stringenc/stringenc.sty
INPUT c:/texlive/2023/texmf-dist/tex/generic/stringenc/stringenc.sty
INPUT c:/texlive/2023/texmf-dist/tex/generic/stringenc/stringenc.sty
INPUT c:/texlive/2023/texmf-dist/tex/generic/stringenc/stringenc.sty
INPUT c:/texlive/2023/texmf-dist/tex/generic/stringenc/stringenc.sty
INPUT c:/texlive/2023/texmf-dist/tex/generic/stringenc/stringenc.sty
INPUT c:/texlive/2023/texmf-dist/tex/generic/stringenc/stringenc.sty
INPUT c:/texlive/2023/texmf-dist/tex/generic/infwarerr/infwarerr.sty
INPUT c:/texlive/2023/texmf-dist/tex/generic/ltxcmds/ltxcmds.sty
INPUT c:/texlive/2023/texmf-dist/tex/generic/pdfescape/pdfescape.sty
INPUT c:/texlive/2023/texmf-dist/tex/generic/intcalc/intcalc.sty
INPUT c:/texlive/2023/texmf-dist/tex/generic/intcalc/intcalc.sty
INPUT c:/texlive/2023/texmf-dist/tex/generic/intcalc/intcalc.sty
INPUT c:/texlive/2023/texmf-dist/tex/generic/intcalc/intcalc.sty
INPUT c:/texlive/2023/texmf-dist/tex/generic/intcalc/intcalc.sty
INPUT c:/texlive/2023/texmf-dist/tex/generic/intcalc/intcalc.sty
INPUT c:/texlive/2023/texmf-dist/tex/generic/intcalc/intcalc.sty
INPUT c:/texlive/2023/texmf-dist/tex/generic/intcalc/intcalc.sty
INPUT c:/texlive/2023/texmf-dist/tex/generic/intcalc/intcalc.sty
INPUT c:/texlive/2023/texmf-dist/tex/generic/intcalc/intcalc.sty
INPUT c:/texlive/2023/texmf-dist/tex/generic/intcalc/intcalc.sty
INPUT c:/texlive/2023/texmf-dist/tex/generic/iftex/iftex.sty
INPUT c:/texlive/2023/texmf-dist/tex/latex/ifmtarg/ifmtarg.sty
INPUT c:/texlive/2023/texmf-dist/tex/latex/ifmtarg/ifmtarg.sty
INPUT c:/texlive/2023/texmf-dist/tex/latex/ifmtarg/ifmtarg.sty
INPUT c:/texlive/2023/texmf-dist/tex/latex/ifmtarg/ifmtarg.sty
INPUT c:/texlive/2023/texmf-dist/tex/latex/ifmtarg/ifmtarg.sty
INPUT c:/texlive/2023/texmf-dist/tex/latex/ifmtarg/ifmtarg.sty
INPUT c:/texlive/2023/texmf-dist/tex/latex/ifmtarg/ifmtarg.sty
INPUT c:/texlive/2023/texmf-dist/tex/latex/ifmtarg/ifmtarg.sty
INPUT c:/texlive/2023/texmf-dist/tex/latex/ifmtarg/ifmtarg.sty
INPUT c:/texlive/2023/texmf-dist/tex/latex/ifmtarg/ifmtarg.sty
INPUT c:/texlive/2023/texmf-dist/tex/latex/ifmtarg/ifmtarg.sty
INPUT c:/texlive/2023/texmf-dist/tex/latex/etoolbox/etoolbox.sty
INPUT c:/texlive/2023/texmf-dist/tex/latex/base/ifthen.sty
INPUT c:/texlive/2023/texmf-dist/tex/latex/base/ifthen.sty
INPUT c:/texlive/2023/texmf-dist/tex/latex/base/ifthen.sty
INPUT c:/texlive/2023/texmf-dist/tex/latex/base/ifthen.sty
INPUT c:/texlive/2023/texmf-dist/tex/latex/base/ifthen.sty
INPUT c:/texlive/2023/texmf-dist/tex/latex/base/ifthen.sty
INPUT c:/texlive/2023/texmf-dist/tex/latex/base/ifthen.sty
INPUT c:/texlive/2023/texmf-dist/tex/latex/base/ifthen.sty
INPUT c:/texlive/2023/texmf-dist/tex/latex/base/ifthen.sty
INPUT c:/texlive/2023/texmf-dist/tex/latex/base/ifthen.sty
INPUT c:/texlive/2023/texmf-dist/tex/latex/base/ifthen.sty
INPUT c:/texlive/2023/texmf-dist/tex/latex/oberdiek/ifdraft.sty
INPUT c:/texlive/2023/texmf-dist/tex/latex/oberdiek/ifdraft.sty
INPUT c:/texlive/2023/texmf-dist/tex/latex/oberdiek/ifdraft.sty
INPUT c:/texlive/2023/texmf-dist/tex/latex/oberdiek/ifdraft.sty
INPUT c:/texlive/2023/texmf-dist/tex/latex/oberdiek/ifdraft.sty
INPUT c:/texlive/2023/texmf-dist/tex/latex/oberdiek/ifdraft.sty
INPUT c:/texlive/2023/texmf-dist/tex/latex/oberdiek/ifdraft.sty
INPUT c:/texlive/2023/texmf-dist/tex/latex/oberdiek/ifdraft.sty
INPUT c:/texlive/2023/texmf-dist/tex/latex/oberdiek/ifdraft.sty
INPUT c:/texlive/2023/texmf-dist/tex/latex/oberdiek/ifdraft.sty
INPUT c:/texlive/2023/texmf-dist/tex/latex/oberdiek/ifdraft.sty
INPUT c:/texlive/2023/texmf-dist/tex/generic/iftex/ifluatex.sty
INPUT c:/texlive/2023/texmf-dist/tex/generic/iftex/ifluatex.sty
INPUT c:/texlive/2023/texmf-dist/tex/generic/iftex/ifluatex.sty
INPUT c:/texlive/2023/texmf-dist/tex/generic/iftex/ifluatex.sty
INPUT c:/texlive/2023/texmf-dist/tex/generic/iftex/ifluatex.sty
INPUT c:/texlive/2023/texmf-dist/tex/generic/iftex/ifluatex.sty
INPUT c:/texlive/2023/texmf-dist/tex/generic/iftex/ifluatex.sty
INPUT c:/texlive/2023/texmf-dist/tex/generic/iftex/ifluatex.sty
INPUT c:/texlive/2023/texmf-dist/tex/generic/iftex/ifluatex.sty
INPUT c:/texlive/2023/texmf-dist/tex/generic/iftex/ifluatex.sty
INPUT c:/texlive/2023/texmf-dist/tex/generic/iftex/ifluatex.sty
INPUT c:/texlive/2023/texmf-dist/tex/generic/iftex/iftex.sty
INPUT c:/texlive/2023/texmf-dist/tex/latex/hyperref/hyperref.sty
INPUT c:/texlive/2023/texmf-dist/tex/latex/hyperref/hyperref.sty
INPUT c:/texlive/2023/texmf-dist/tex/latex/hyperref/hyperref.sty
INPUT c:/texlive/2023/texmf-dist/tex/latex/hyperref/hyperref.sty
INPUT c:/texlive/2023/texmf-dist/tex/latex/hyperref/hyperref.sty
INPUT c:/texlive/2023/texmf-dist/tex/latex/hyperref/hyperref.sty
INPUT c:/texlive/2023/texmf-dist/tex/latex/hyperref/hyperref.sty
INPUT c:/texlive/2023/texmf-dist/tex/latex/hyperref/hyperref.sty
INPUT c:/texlive/2023/texmf-dist/tex/latex/hyperref/hyperref.sty
INPUT c:/texlive/2023/texmf-dist/tex/latex/hyperref/hyperref.sty
INPUT c:/texlive/2023/texmf-dist/tex/latex/hyperref/hyperref.sty
INPUT c:/texlive/2023/texmf-dist/tex/generic/ltxcmds/ltxcmds.sty
INPUT c:/texlive/2023/texmf-dist/tex/generic/iftex/iftex.sty
INPUT c:/texlive/2023/texmf-dist/tex/generic/pdftexcmds/pdftexcmds.sty
INPUT c:/texlive/2023/texmf-dist/tex/generic/infwarerr/infwarerr.sty
INPUT c:/texlive/2023/texmf-dist/tex/latex/graphics/keyval.sty
INPUT c:/texlive/2023/texmf-dist/tex/latex/kvsetkeys/kvsetkeys.sty
INPUT c:/texlive/2023/texmf-dist/tex/generic/kvdefinekeys/kvdefinekeys.sty
INPUT c:/texlive/2023/texmf-dist/tex/generic/kvdefinekeys/kvdefinekeys.sty
INPUT c:/texlive/2023/texmf-dist/tex/generic/kvdefinekeys/kvdefinekeys.sty
INPUT c:/texlive/2023/texmf-dist/tex/generic/kvdefinekeys/kvdefinekeys.sty
INPUT c:/texlive/2023/texmf-dist/tex/generic/kvdefinekeys/kvdefinekeys.sty
INPUT c:/texlive/2023/texmf-dist/tex/generic/kvdefinekeys/kvdefinekeys.sty
INPUT c:/texlive/2023/texmf-dist/tex/generic/kvdefinekeys/kvdefinekeys.sty
INPUT c:/texlive/2023/texmf-dist/tex/generic/kvdefinekeys/kvdefinekeys.sty
INPUT c:/texlive/2023/texmf-dist/tex/generic/kvdefinekeys/kvdefinekeys.sty
INPUT c:/texlive/2023/texmf-dist/tex/generic/kvdefinekeys/kvdefinekeys.sty
INPUT c:/texlive/2023/texmf-dist/tex/generic/kvdefinekeys/kvdefinekeys.sty
INPUT c:/texlive/2023/texmf-dist/tex/generic/pdfescape/pdfescape.sty
INPUT c:/texlive/2023/texmf-dist/tex/latex/hycolor/hycolor.sty
INPUT c:/texlive/2023/texmf-dist/tex/latex/hycolor/hycolor.sty
INPUT c:/texlive/2023/texmf-dist/tex/latex/hycolor/hycolor.sty
INPUT c:/texlive/2023/texmf-dist/tex/latex/hycolor/hycolor.sty
INPUT c:/texlive/2023/texmf-dist/tex/latex/hycolor/hycolor.sty
INPUT c:/texlive/2023/texmf-dist/tex/latex/hycolor/hycolor.sty
INPUT c:/texlive/2023/texmf-dist/tex/latex/hycolor/hycolor.sty
INPUT c:/texlive/2023/texmf-dist/tex/latex/hycolor/hycolor.sty
INPUT c:/texlive/2023/texmf-dist/tex/latex/hycolor/hycolor.sty
INPUT c:/texlive/2023/texmf-dist/tex/latex/hycolor/hycolor.sty
INPUT c:/texlive/2023/texmf-dist/tex/latex/hycolor/hycolor.sty
INPUT c:/texlive/2023/texmf-dist/tex/latex/letltxmacro/letltxmacro.sty
INPUT c:/texlive/2023/texmf-dist/tex/latex/letltxmacro/letltxmacro.sty
INPUT c:/texlive/2023/texmf-dist/tex/latex/letltxmacro/letltxmacro.sty
INPUT c:/texlive/2023/texmf-dist/tex/latex/letltxmacro/letltxmacro.sty
INPUT c:/texlive/2023/texmf-dist/tex/latex/letltxmacro/letltxmacro.sty
INPUT c:/texlive/2023/texmf-dist/tex/latex/letltxmacro/letltxmacro.sty
INPUT c:/texlive/2023/texmf-dist/tex/latex/letltxmacro/letltxmacro.sty
INPUT c:/texlive/2023/texmf-dist/tex/latex/letltxmacro/letltxmacro.sty
INPUT c:/texlive/2023/texmf-dist/tex/latex/letltxmacro/letltxmacro.sty
INPUT c:/texlive/2023/texmf-dist/tex/latex/letltxmacro/letltxmacro.sty
INPUT c:/texlive/2023/texmf-dist/tex/latex/letltxmacro/letltxmacro.sty
INPUT c:/texlive/2023/texmf-dist/tex/latex/auxhook/auxhook.sty
INPUT c:/texlive/2023/texmf-dist/tex/latex/auxhook/auxhook.sty
INPUT c:/texlive/2023/texmf-dist/tex/latex/auxhook/auxhook.sty
INPUT c:/texlive/2023/texmf-dist/tex/latex/auxhook/auxhook.sty
INPUT c:/texlive/2023/texmf-dist/tex/latex/auxhook/auxhook.sty
INPUT c:/texlive/2023/texmf-dist/tex/latex/auxhook/auxhook.sty
INPUT c:/texlive/2023/texmf-dist/tex/latex/auxhook/auxhook.sty
INPUT c:/texlive/2023/texmf-dist/tex/latex/auxhook/auxhook.sty
INPUT c:/texlive/2023/texmf-dist/tex/latex/auxhook/auxhook.sty
INPUT c:/texlive/2023/texmf-dist/tex/latex/auxhook/auxhook.sty
INPUT c:/texlive/2023/texmf-dist/tex/latex/auxhook/auxhook.sty
INPUT c:/texlive/2023/texmf-dist/tex/latex/hyperref/nameref.sty
INPUT c:/texlive/2023/texmf-dist/tex/latex/hyperref/nameref.sty
INPUT c:/texlive/2023/texmf-dist/tex/latex/hyperref/nameref.sty
INPUT c:/texlive/2023/texmf-dist/tex/latex/hyperref/nameref.sty
INPUT c:/texlive/2023/texmf-dist/tex/latex/hyperref/nameref.sty
INPUT c:/texlive/2023/texmf-dist/tex/latex/hyperref/nameref.sty
INPUT c:/texlive/2023/texmf-dist/tex/latex/hyperref/nameref.sty
INPUT c:/texlive/2023/texmf-dist/tex/latex/hyperref/nameref.sty
INPUT c:/texlive/2023/texmf-dist/tex/latex/hyperref/nameref.sty
INPUT c:/texlive/2023/texmf-dist/tex/latex/hyperref/nameref.sty
INPUT c:/texlive/2023/texmf-dist/tex/latex/hyperref/nameref.sty
INPUT c:/texlive/2023/texmf-dist/tex/latex/refcount/refcount.sty
INPUT c:/texlive/2023/texmf-dist/tex/generic/gettitlestring/gettitlestring.sty
INPUT c:/texlive/2023/texmf-dist/tex/generic/gettitlestring/gettitlestring.sty
INPUT c:/texlive/2023/texmf-dist/tex/generic/gettitlestring/gettitlestring.sty
INPUT c:/texlive/2023/texmf-dist/tex/generic/gettitlestring/gettitlestring.sty
INPUT c:/texlive/2023/texmf-dist/tex/generic/gettitlestring/gettitlestring.sty
INPUT c:/texlive/2023/texmf-dist/tex/generic/gettitlestring/gettitlestring.sty
INPUT c:/texlive/2023/texmf-dist/tex/generic/gettitlestring/gettitlestring.sty
INPUT c:/texlive/2023/texmf-dist/tex/generic/gettitlestring/gettitlestring.sty
INPUT c:/texlive/2023/texmf-dist/tex/generic/gettitlestring/gettitlestring.sty
INPUT c:/texlive/2023/texmf-dist/tex/generic/gettitlestring/gettitlestring.sty
INPUT c:/texlive/2023/texmf-dist/tex/generic/gettitlestring/gettitlestring.sty
INPUT c:/texlive/2023/texmf-dist/tex/latex/kvoptions/kvoptions.sty
INPUT c:/texlive/2023/texmf-dist/tex/generic/ltxcmds/ltxcmds.sty
INPUT c:/texlive/2023/texmf-dist/tex/latex/etoolbox/etoolbox.sty
INPUT c:/texlive/2023/texmf-dist/tex/latex/kvoptions/kvoptions.sty
INPUT c:/texlive/2023/texmf-dist/tex/latex/hyperref/pd1enc.def
INPUT c:/texlive/2023/texmf-dist/tex/latex/hyperref/pd1enc.def
INPUT c:/texlive/2023/texmf-dist/tex/latex/hyperref/pd1enc.def
INPUT c:/texlive/2023/texmf-dist/tex/latex/hyperref/pd1enc.def
INPUT c:/texlive/2023/texmf-dist/tex/generic/intcalc/intcalc.sty
INPUT c:/texlive/2023/texmf-dist/tex/latex/hyperref/puenc.def
INPUT c:/texlive/2023/texmf-dist/tex/latex/hyperref/puenc.def
INPUT c:/texlive/2023/texmf-dist/tex/latex/hyperref/puenc.def
INPUT c:/texlive/2023/texmf-dist/tex/latex/hyperref/puenc.def
INPUT c:/texlive/2023/texmf-dist/tex/latex/url/url.sty
INPUT c:/texlive/2023/texmf-dist/tex/latex/url/url.sty
INPUT c:/texlive/2023/texmf-dist/tex/latex/url/url.sty
INPUT c:/texlive/2023/texmf-dist/tex/latex/url/url.sty
INPUT c:/texlive/2023/texmf-dist/tex/latex/url/url.sty
INPUT c:/texlive/2023/texmf-dist/tex/latex/url/url.sty
INPUT c:/texlive/2023/texmf-dist/tex/latex/url/url.sty
INPUT c:/texlive/2023/texmf-dist/tex/latex/url/url.sty
INPUT c:/texlive/2023/texmf-dist/tex/latex/url/url.sty
INPUT c:/texlive/2023/texmf-dist/tex/latex/url/url.sty
INPUT c:/texlive/2023/texmf-dist/tex/latex/url/url.sty
INPUT c:/texlive/2023/texmf-dist/tex/generic/bitset/bitset.sty
INPUT c:/texlive/2023/texmf-dist/tex/generic/bitset/bitset.sty
INPUT c:/texlive/2023/texmf-dist/tex/generic/bitset/bitset.sty
INPUT c:/texlive/2023/texmf-dist/tex/generic/bitset/bitset.sty
INPUT c:/texlive/2023/texmf-dist/tex/generic/bitset/bitset.sty
INPUT c:/texlive/2023/texmf-dist/tex/generic/bitset/bitset.sty
INPUT c:/texlive/2023/texmf-dist/tex/generic/bitset/bitset.sty
INPUT c:/texlive/2023/texmf-dist/tex/generic/bitset/bitset.sty
INPUT c:/texlive/2023/texmf-dist/tex/generic/bitset/bitset.sty
INPUT c:/texlive/2023/texmf-dist/tex/generic/bitset/bitset.sty
INPUT c:/texlive/2023/texmf-dist/tex/generic/bitset/bitset.sty
INPUT c:/texlive/2023/texmf-dist/tex/generic/infwarerr/infwarerr.sty
INPUT c:/texlive/2023/texmf-dist/tex/generic/intcalc/intcalc.sty
INPUT c:/texlive/2023/texmf-dist/tex/generic/bigintcalc/bigintcalc.sty
INPUT c:/texlive/2023/texmf-dist/tex/generic/bigintcalc/bigintcalc.sty
INPUT c:/texlive/2023/texmf-dist/tex/generic/bigintcalc/bigintcalc.sty
INPUT c:/texlive/2023/texmf-dist/tex/generic/bigintcalc/bigintcalc.sty
INPUT c:/texlive/2023/texmf-dist/tex/generic/bigintcalc/bigintcalc.sty
INPUT c:/texlive/2023/texmf-dist/tex/generic/bigintcalc/bigintcalc.sty
INPUT c:/texlive/2023/texmf-dist/tex/generic/bigintcalc/bigintcalc.sty
INPUT c:/texlive/2023/texmf-dist/tex/generic/bigintcalc/bigintcalc.sty
INPUT c:/texlive/2023/texmf-dist/tex/generic/bigintcalc/bigintcalc.sty
INPUT c:/texlive/2023/texmf-dist/tex/generic/bigintcalc/bigintcalc.sty
INPUT c:/texlive/2023/texmf-dist/tex/generic/bigintcalc/bigintcalc.sty
INPUT c:/texlive/2023/texmf-dist/tex/generic/pdftexcmds/pdftexcmds.sty
INPUT c:/texlive/2023/texmf-dist/tex/generic/atbegshi/atbegshi.sty
INPUT c:/texlive/2023/texmf-dist/tex/generic/atbegshi/atbegshi.sty
INPUT c:/texlive/2023/texmf-dist/tex/generic/atbegshi/atbegshi.sty
INPUT c:/texlive/2023/texmf-dist/tex/latex/base/atbegshi-ltx.sty
INPUT c:/texlive/2023/texmf-dist/tex/generic/atbegshi/atbegshi.sty
INPUT c:/texlive/2023/texmf-dist/tex/generic/atbegshi/atbegshi.sty
INPUT c:/texlive/2023/texmf-dist/tex/latex/base/atbegshi-ltx.sty
INPUT c:/texlive/2023/texmf-dist/tex/generic/atbegshi/atbegshi.sty
INPUT c:/texlive/2023/texmf-dist/tex/latex/base/atbegshi-ltx.sty
INPUT c:/texlive/2023/texmf-dist/tex/latex/base/atbegshi-ltx.sty
INPUT c:/texlive/2023/texmf-dist/tex/generic/atbegshi/atbegshi.sty
INPUT c:/texlive/2023/texmf-dist/tex/generic/atbegshi/atbegshi.sty
INPUT c:/texlive/2023/texmf-dist/tex/latex/base/atbegshi-ltx.sty
INPUT c:/texlive/2023/texmf-dist/tex/latex/base/atbegshi-ltx.sty
INPUT c:/texlive/2023/texmf-dist/tex/generic/atbegshi/atbegshi.sty
INPUT c:/texlive/2023/texmf-dist/tex/latex/base/atbegshi-ltx.sty
INPUT c:/texlive/2023/texmf-dist/tex/latex/hyperref/hpdftex.def
INPUT c:/texlive/2023/texmf-dist/tex/latex/hyperref/hpdftex.def
INPUT c:/texlive/2023/texmf-dist/tex/latex/hyperref/hpdftex.def
INPUT c:/texlive/2023/texmf-dist/tex/latex/hyperref/hpdftex.def
INPUT c:/texlive/2023/texmf-dist/tex/latex/atveryend/atveryend.sty
INPUT c:/texlive/2023/texmf-dist/tex/latex/atveryend/atveryend.sty
INPUT c:/texlive/2023/texmf-dist/tex/latex/atveryend/atveryend.sty
INPUT c:/texlive/2023/texmf-dist/tex/latex/base/atveryend-ltx.sty
INPUT c:/texlive/2023/texmf-dist/tex/latex/atveryend/atveryend.sty
INPUT c:/texlive/2023/texmf-dist/tex/latex/atveryend/atveryend.sty
INPUT c:/texlive/2023/texmf-dist/tex/latex/base/atveryend-ltx.sty
INPUT c:/texlive/2023/texmf-dist/tex/latex/atveryend/atveryend.sty
INPUT c:/texlive/2023/texmf-dist/tex/latex/base/atveryend-ltx.sty
INPUT c:/texlive/2023/texmf-dist/tex/latex/base/atveryend-ltx.sty
INPUT c:/texlive/2023/texmf-dist/tex/latex/atveryend/atveryend.sty
INPUT c:/texlive/2023/texmf-dist/tex/latex/atveryend/atveryend.sty
INPUT c:/texlive/2023/texmf-dist/tex/latex/base/atveryend-ltx.sty
INPUT c:/texlive/2023/texmf-dist/tex/latex/base/atveryend-ltx.sty
INPUT c:/texlive/2023/texmf-dist/tex/latex/atveryend/atveryend.sty
INPUT c:/texlive/2023/texmf-dist/tex/latex/base/atveryend-ltx.sty
INPUT c:/texlive/2023/texmf-dist/tex/latex/rerunfilecheck/rerunfilecheck.sty
INPUT c:/texlive/2023/texmf-dist/tex/latex/rerunfilecheck/rerunfilecheck.sty
INPUT c:/texlive/2023/texmf-dist/tex/latex/rerunfilecheck/rerunfilecheck.sty
INPUT c:/texlive/2023/texmf-dist/tex/latex/rerunfilecheck/rerunfilecheck.sty
INPUT c:/texlive/2023/texmf-dist/tex/latex/rerunfilecheck/rerunfilecheck.sty
INPUT c:/texlive/2023/texmf-dist/tex/latex/rerunfilecheck/rerunfilecheck.sty
INPUT c:/texlive/2023/texmf-dist/tex/latex/rerunfilecheck/rerunfilecheck.sty
INPUT c:/texlive/2023/texmf-dist/tex/latex/rerunfilecheck/rerunfilecheck.sty
INPUT c:/texlive/2023/texmf-dist/tex/latex/rerunfilecheck/rerunfilecheck.sty
INPUT c:/texlive/2023/texmf-dist/tex/latex/rerunfilecheck/rerunfilecheck.sty
INPUT c:/texlive/2023/texmf-dist/tex/latex/rerunfilecheck/rerunfilecheck.sty
INPUT c:/texlive/2023/texmf-dist/tex/latex/kvoptions/kvoptions.sty
INPUT c:/texlive/2023/texmf-dist/tex/generic/infwarerr/infwarerr.sty
INPUT c:/texlive/2023/texmf-dist/tex/generic/pdftexcmds/pdftexcmds.sty
INPUT c:/texlive/2023/texmf-dist/tex/latex/atveryend/atveryend.sty
INPUT c:/texlive/2023/texmf-dist/tex/generic/uniquecounter/uniquecounter.sty
INPUT c:/texlive/2023/texmf-dist/tex/generic/uniquecounter/uniquecounter.sty
INPUT c:/texlive/2023/texmf-dist/tex/generic/uniquecounter/uniquecounter.sty
INPUT c:/texlive/2023/texmf-dist/tex/generic/uniquecounter/uniquecounter.sty
INPUT c:/texlive/2023/texmf-dist/tex/generic/uniquecounter/uniquecounter.sty
INPUT c:/texlive/2023/texmf-dist/tex/generic/uniquecounter/uniquecounter.sty
INPUT c:/texlive/2023/texmf-dist/tex/generic/uniquecounter/uniquecounter.sty
INPUT c:/texlive/2023/texmf-dist/tex/generic/uniquecounter/uniquecounter.sty
INPUT c:/texlive/2023/texmf-dist/tex/generic/uniquecounter/uniquecounter.sty
INPUT c:/texlive/2023/texmf-dist/tex/generic/uniquecounter/uniquecounter.sty
INPUT c:/texlive/2023/texmf-dist/tex/generic/uniquecounter/uniquecounter.sty
INPUT c:/texlive/2023/texmf-dist/tex/generic/bigintcalc/bigintcalc.sty
INPUT c:/texlive/2023/texmf-dist/tex/generic/infwarerr/infwarerr.sty
INPUT c:/texlive/2023/texmf-dist/tex/latex/graphics/graphicx.sty
INPUT c:/texlive/2023/texmf-dist/tex/latex/graphics/graphicx.sty
INPUT c:/texlive/2023/texmf-dist/tex/latex/graphics/graphicx.sty
INPUT c:/texlive/2023/texmf-dist/tex/latex/graphics/graphicx.sty
INPUT c:/texlive/2023/texmf-dist/tex/latex/graphics/graphicx.sty
INPUT c:/texlive/2023/texmf-dist/tex/latex/graphics/graphicx.sty
INPUT c:/texlive/2023/texmf-dist/tex/latex/graphics/graphicx.sty
INPUT c:/texlive/2023/texmf-dist/tex/latex/graphics/graphicx.sty
INPUT c:/texlive/2023/texmf-dist/tex/latex/graphics/graphicx.sty
INPUT c:/texlive/2023/texmf-dist/tex/latex/graphics/graphicx.sty
INPUT c:/texlive/2023/texmf-dist/tex/latex/graphics/graphicx.sty
INPUT c:/texlive/2023/texmf-dist/tex/latex/graphics/keyval.sty
INPUT c:/texlive/2023/texmf-dist/tex/latex/graphics/graphics.sty
INPUT c:/texlive/2023/texmf-dist/tex/latex/graphics/graphics.sty
INPUT c:/texlive/2023/texmf-dist/tex/latex/graphics/graphics.sty
INPUT c:/texlive/2023/texmf-dist/tex/latex/graphics/graphics.sty
INPUT c:/texlive/2023/texmf-dist/tex/latex/graphics/graphics.sty
INPUT c:/texlive/2023/texmf-dist/tex/latex/graphics/graphics.sty
INPUT c:/texlive/2023/texmf-dist/tex/latex/graphics/graphics.sty
INPUT c:/texlive/2023/texmf-dist/tex/latex/graphics/graphics.sty
INPUT c:/texlive/2023/texmf-dist/tex/latex/graphics/graphics.sty
INPUT c:/texlive/2023/texmf-dist/tex/latex/graphics/graphics.sty
INPUT c:/texlive/2023/texmf-dist/tex/latex/graphics/graphics.sty
INPUT c:/texlive/2023/texmf-dist/tex/latex/graphics/trig.sty
INPUT c:/texlive/2023/texmf-dist/tex/latex/graphics/trig.sty
INPUT c:/texlive/2023/texmf-dist/tex/latex/graphics/trig.sty
INPUT c:/texlive/2023/texmf-dist/tex/latex/graphics/trig.sty
INPUT c:/texlive/2023/texmf-dist/tex/latex/graphics/trig.sty
INPUT c:/texlive/2023/texmf-dist/tex/latex/graphics/trig.sty
INPUT c:/texlive/2023/texmf-dist/tex/latex/graphics/trig.sty
INPUT c:/texlive/2023/texmf-dist/tex/latex/graphics/trig.sty
INPUT c:/texlive/2023/texmf-dist/tex/latex/graphics/trig.sty
INPUT c:/texlive/2023/texmf-dist/tex/latex/graphics/trig.sty
INPUT c:/texlive/2023/texmf-dist/tex/latex/graphics/trig.sty
INPUT c:/texlive/2023/texmf-dist/tex/latex/graphics-cfg/graphics.cfg
INPUT c:/texlive/2023/texmf-dist/tex/latex/graphics-cfg/graphics.cfg
INPUT c:/texlive/2023/texmf-dist/tex/latex/graphics-cfg/graphics.cfg
INPUT c:/texlive/2023/texmf-dist/tex/latex/graphics-cfg/graphics.cfg
INPUT c:/texlive/2023/texmf-dist/tex/latex/graphics-def/pdftex.def
INPUT c:/texlive/2023/texmf-dist/tex/latex/graphics-def/pdftex.def
INPUT c:/texlive/2023/texmf-dist/tex/latex/graphics-def/pdftex.def
INPUT c:/texlive/2023/texmf-dist/tex/latex/graphics-def/pdftex.def
INPUT c:/texlive/2023/texmf-dist/tex/latex/xcolor/xcolor.sty
INPUT c:/texlive/2023/texmf-dist/tex/latex/xcolor/xcolor.sty
INPUT c:/texlive/2023/texmf-dist/tex/latex/xcolor/xcolor.sty
INPUT c:/texlive/2023/texmf-dist/tex/latex/xcolor/xcolor.sty
INPUT c:/texlive/2023/texmf-dist/tex/latex/xcolor/xcolor.sty
INPUT c:/texlive/2023/texmf-dist/tex/latex/xcolor/xcolor.sty
INPUT c:/texlive/2023/texmf-dist/tex/latex/xcolor/xcolor.sty
INPUT c:/texlive/2023/texmf-dist/tex/latex/xcolor/xcolor.sty
INPUT c:/texlive/2023/texmf-dist/tex/latex/xcolor/xcolor.sty
INPUT c:/texlive/2023/texmf-dist/tex/latex/xcolor/xcolor.sty
INPUT c:/texlive/2023/texmf-dist/tex/latex/xcolor/xcolor.sty
INPUT c:/texlive/2023/texmf-dist/tex/latex/graphics-cfg/color.cfg
INPUT c:/texlive/2023/texmf-dist/tex/latex/graphics-cfg/color.cfg
INPUT c:/texlive/2023/texmf-dist/tex/latex/graphics-cfg/color.cfg
INPUT c:/texlive/2023/texmf-dist/tex/latex/graphics-cfg/color.cfg
INPUT c:/texlive/2023/texmf-dist/tex/latex/graphics/mathcolor.ltx
INPUT c:/texlive/2023/texmf-dist/tex/latex/graphics/mathcolor.ltx
INPUT c:/texlive/2023/texmf-dist/tex/latex/graphics/mathcolor.ltx
INPUT c:/texlive/2023/texmf-dist/tex/latex/graphics/mathcolor.ltx
INPUT c:/texlive/2023/texmf-dist/tex/latex/geometry/geometry.sty
INPUT c:/texlive/2023/texmf-dist/tex/latex/geometry/geometry.sty
INPUT c:/texlive/2023/texmf-dist/tex/latex/geometry/geometry.sty
INPUT c:/texlive/2023/texmf-dist/tex/latex/geometry/geometry.sty
INPUT c:/texlive/2023/texmf-dist/tex/latex/geometry/geometry.sty
INPUT c:/texlive/2023/texmf-dist/tex/latex/geometry/geometry.sty
INPUT c:/texlive/2023/texmf-dist/tex/latex/geometry/geometry.sty
INPUT c:/texlive/2023/texmf-dist/tex/latex/geometry/geometry.sty
INPUT c:/texlive/2023/texmf-dist/tex/latex/geometry/geometry.sty
INPUT c:/texlive/2023/texmf-dist/tex/latex/geometry/geometry.sty
INPUT c:/texlive/2023/texmf-dist/tex/latex/geometry/geometry.sty
INPUT c:/texlive/2023/texmf-dist/tex/latex/graphics/keyval.sty
INPUT c:/texlive/2023/texmf-dist/tex/generic/iftex/ifvtex.sty
INPUT c:/texlive/2023/texmf-dist/tex/generic/iftex/ifvtex.sty
INPUT c:/texlive/2023/texmf-dist/tex/generic/iftex/ifvtex.sty
INPUT c:/texlive/2023/texmf-dist/tex/generic/iftex/ifvtex.sty
INPUT c:/texlive/2023/texmf-dist/tex/generic/iftex/ifvtex.sty
INPUT c:/texlive/2023/texmf-dist/tex/generic/iftex/ifvtex.sty
INPUT c:/texlive/2023/texmf-dist/tex/generic/iftex/ifvtex.sty
INPUT c:/texlive/2023/texmf-dist/tex/generic/iftex/ifvtex.sty
INPUT c:/texlive/2023/texmf-dist/tex/generic/iftex/ifvtex.sty
INPUT c:/texlive/2023/texmf-dist/tex/generic/iftex/ifvtex.sty
INPUT c:/texlive/2023/texmf-dist/tex/generic/iftex/ifvtex.sty
INPUT c:/texlive/2023/texmf-dist/tex/generic/iftex/iftex.sty
INPUT c:/texlive/2023/texmf-dist/tex/latex/ncctools/manyfoot.sty
INPUT c:/texlive/2023/texmf-dist/tex/latex/ncctools/manyfoot.sty
INPUT c:/texlive/2023/texmf-dist/tex/latex/ncctools/manyfoot.sty
INPUT c:/texlive/2023/texmf-dist/tex/latex/ncctools/manyfoot.sty
INPUT c:/texlive/2023/texmf-dist/tex/latex/ncctools/manyfoot.sty
INPUT c:/texlive/2023/texmf-dist/tex/latex/ncctools/manyfoot.sty
INPUT c:/texlive/2023/texmf-dist/tex/latex/ncctools/manyfoot.sty
INPUT c:/texlive/2023/texmf-dist/tex/latex/ncctools/manyfoot.sty
INPUT c:/texlive/2023/texmf-dist/tex/latex/ncctools/manyfoot.sty
INPUT c:/texlive/2023/texmf-dist/tex/latex/ncctools/manyfoot.sty
INPUT c:/texlive/2023/texmf-dist/tex/latex/ncctools/manyfoot.sty
INPUT c:/texlive/2023/texmf-dist/tex/latex/ncctools/nccfoots.sty
INPUT c:/texlive/2023/texmf-dist/tex/latex/ncctools/nccfoots.sty
INPUT c:/texlive/2023/texmf-dist/tex/latex/ncctools/nccfoots.sty
INPUT c:/texlive/2023/texmf-dist/tex/latex/ncctools/nccfoots.sty
INPUT c:/texlive/2023/texmf-dist/tex/latex/ncctools/nccfoots.sty
INPUT c:/texlive/2023/texmf-dist/tex/latex/ncctools/nccfoots.sty
INPUT c:/texlive/2023/texmf-dist/tex/latex/ncctools/nccfoots.sty
INPUT c:/texlive/2023/texmf-dist/tex/latex/ncctools/nccfoots.sty
INPUT c:/texlive/2023/texmf-dist/tex/latex/ncctools/nccfoots.sty
INPUT c:/texlive/2023/texmf-dist/tex/latex/ncctools/nccfoots.sty
INPUT c:/texlive/2023/texmf-dist/tex/latex/ncctools/nccfoots.sty
INPUT c:/texlive/2023/texmf-dist/tex/generic/pdftex/glyphtounicode.tex
INPUT c:/texlive/2023/texmf-dist/tex/generic/pdftex/glyphtounicode.tex
INPUT c:/texlive/2023/texmf-dist/tex/generic/pdftex/glyphtounicode.tex
INPUT c:/texlive/2023/texmf-dist/tex/generic/pdftex/glyphtounicode.tex
INPUT c:/texlive/2023/texmf-dist/tex/generic/pdftex/glyphtounicode.tex
INPUT c:/texlive/2023/texmf-dist/tex/generic/pdftex/glyphtounicode.tex
INPUT c:/texlive/2023/texmf-dist/tex/generic/pdftex/glyphtounicode.tex
INPUT c:/texlive/2023/texmf-dist/tex/latex/cmap/cmap.sty
INPUT c:/texlive/2023/texmf-dist/tex/latex/cmap/cmap.sty
INPUT c:/texlive/2023/texmf-dist/tex/latex/cmap/cmap.sty
INPUT c:/texlive/2023/texmf-dist/tex/latex/cmap/cmap.sty
INPUT c:/texlive/2023/texmf-dist/tex/latex/cmap/cmap.sty
INPUT c:/texlive/2023/texmf-dist/tex/latex/cmap/cmap.sty
INPUT c:/texlive/2023/texmf-dist/tex/latex/cmap/cmap.sty
INPUT c:/texlive/2023/texmf-dist/tex/latex/cmap/cmap.sty
INPUT c:/texlive/2023/texmf-dist/tex/latex/cmap/cmap.sty
INPUT c:/texlive/2023/texmf-dist/tex/latex/cmap/cmap.sty
INPUT c:/texlive/2023/texmf-dist/tex/latex/cmap/cmap.sty
INPUT c:/texlive/2023/texmf-dist/tex/latex/libertine/libertine.sty
INPUT c:/texlive/2023/texmf-dist/tex/latex/libertine/libertine.sty
INPUT c:/texlive/2023/texmf-dist/tex/latex/inconsolata/zi4.sty
INPUT c:/texlive/2023/texmf-dist/tex/latex/inconsolata/zi4.sty
INPUT c:/texlive/2023/texmf-dist/tex/latex/newtx/newtxmath.sty
INPUT c:/texlive/2023/texmf-dist/tex/latex/newtx/newtxmath.sty
INPUT c:/texlive/2023/texmf-dist/tex/latex/base/fontenc.sty
INPUT c:/texlive/2023/texmf-dist/tex/latex/base/fontenc.sty
INPUT c:/texlive/2023/texmf-dist/tex/latex/base/fontenc.sty
INPUT c:/texlive/2023/texmf-dist/tex/latex/base/fontenc.sty
INPUT c:/texlive/2023/texmf-dist/tex/latex/base/fontenc.sty
INPUT c:/texlive/2023/texmf-dist/tex/latex/base/fontenc.sty
INPUT c:/texlive/2023/texmf-dist/tex/latex/base/fontenc.sty
INPUT c:/texlive/2023/texmf-dist/tex/latex/base/fontenc.sty
INPUT c:/texlive/2023/texmf-dist/tex/latex/base/fontenc.sty
INPUT c:/texlive/2023/texmf-dist/tex/latex/base/fontenc.sty
INPUT c:/texlive/2023/texmf-dist/tex/latex/base/fontenc.sty
INPUT c:/texlive/2023/texmf-dist/fonts/tfm/jknappen/ec/ecrm0900.tfm
INPUT c:/texlive/2023/texmf-dist/tex/latex/cmap/t1.cmap
INPUT c:/texlive/2023/texmf-dist/tex/latex/cmap/t1.cmap
OUTPUT sample-sigconf.pdf
INPUT c:/texlive/2023/texmf-dist/tex/latex/cmap/t1.cmap
INPUT c:/texlive/2023/texmf-dist/tex/latex/libertine/libertine.sty
INPUT c:/texlive/2023/texmf-dist/tex/latex/libertine/libertine.sty
INPUT c:/texlive/2023/texmf-dist/tex/latex/libertine/libertine.sty
INPUT c:/texlive/2023/texmf-dist/tex/latex/libertine/libertine.sty
INPUT c:/texlive/2023/texmf-dist/tex/latex/libertine/libertine.sty
INPUT c:/texlive/2023/texmf-dist/tex/latex/libertine/libertine.sty
INPUT c:/texlive/2023/texmf-dist/tex/latex/libertine/libertine.sty
INPUT c:/texlive/2023/texmf-dist/tex/latex/libertine/libertine.sty
INPUT c:/texlive/2023/texmf-dist/tex/latex/libertine/libertine.sty
INPUT c:/texlive/2023/texmf-dist/tex/latex/libertine/libertine.sty
INPUT c:/texlive/2023/texmf-dist/tex/latex/libertine/libertine.sty
INPUT c:/texlive/2023/texmf-dist/tex/generic/iftex/ifxetex.sty
INPUT c:/texlive/2023/texmf-dist/tex/generic/iftex/ifxetex.sty
INPUT c:/texlive/2023/texmf-dist/tex/generic/iftex/ifxetex.sty
INPUT c:/texlive/2023/texmf-dist/tex/generic/iftex/ifxetex.sty
INPUT c:/texlive/2023/texmf-dist/tex/generic/iftex/ifxetex.sty
INPUT c:/texlive/2023/texmf-dist/tex/generic/iftex/ifxetex.sty
INPUT c:/texlive/2023/texmf-dist/tex/generic/iftex/ifxetex.sty
INPUT c:/texlive/2023/texmf-dist/tex/generic/iftex/ifxetex.sty
INPUT c:/texlive/2023/texmf-dist/tex/generic/iftex/ifxetex.sty
INPUT c:/texlive/2023/texmf-dist/tex/generic/iftex/ifxetex.sty
INPUT c:/texlive/2023/texmf-dist/tex/generic/iftex/ifxetex.sty
INPUT c:/texlive/2023/texmf-dist/tex/generic/iftex/iftex.sty
INPUT c:/texlive/2023/texmf-dist/tex/generic/iftex/ifluatex.sty
INPUT c:/texlive/2023/texmf-dist/tex/latex/xkeyval/xkeyval.sty
INPUT c:/texlive/2023/texmf-dist/tex/latex/base/textcomp.sty
INPUT c:/texlive/2023/texmf-dist/tex/latex/base/textcomp.sty
INPUT c:/texlive/2023/texmf-dist/tex/latex/base/textcomp.sty
INPUT c:/texlive/2023/texmf-dist/tex/latex/base/textcomp.sty
INPUT c:/texlive/2023/texmf-dist/tex/latex/base/textcomp.sty
INPUT c:/texlive/2023/texmf-dist/tex/latex/base/textcomp.sty
INPUT c:/texlive/2023/texmf-dist/tex/latex/base/textcomp.sty
INPUT c:/texlive/2023/texmf-dist/tex/latex/base/textcomp.sty
INPUT c:/texlive/2023/texmf-dist/tex/latex/base/textcomp.sty
INPUT c:/texlive/2023/texmf-dist/tex/latex/base/textcomp.sty
INPUT c:/texlive/2023/texmf-dist/tex/latex/base/textcomp.sty
INPUT c:/texlive/2023/texmf-dist/tex/latex/mweights/mweights.sty
INPUT c:/texlive/2023/texmf-dist/tex/latex/base/fontenc.sty
INPUT c:/texlive/2023/texmf-dist/tex/latex/base/fontenc.sty
INPUT c:/texlive/2023/texmf-dist/tex/latex/base/fontenc.sty
INPUT c:/texlive/2023/texmf-dist/tex/latex/base/fontenc.sty
INPUT c:/texlive/2023/texmf-dist/tex/latex/base/fontenc.sty
INPUT c:/texlive/2023/texmf-dist/tex/latex/base/fontenc.sty
INPUT c:/texlive/2023/texmf-dist/tex/latex/base/fontenc.sty
INPUT c:/texlive/2023/texmf-dist/tex/latex/base/fontenc.sty
INPUT c:/texlive/2023/texmf-dist/tex/latex/base/fontenc.sty
INPUT c:/texlive/2023/texmf-dist/tex/latex/base/fontenc.sty
INPUT c:/texlive/2023/texmf-dist/tex/latex/base/fontenc.sty
INPUT c:/texlive/2023/texmf-dist/tex/latex/fontaxes/fontaxes.sty
INPUT c:/texlive/2023/texmf-dist/tex/latex/fontaxes/fontaxes.sty
INPUT c:/texlive/2023/texmf-dist/tex/latex/fontaxes/fontaxes.sty
INPUT c:/texlive/2023/texmf-dist/tex/latex/fontaxes/fontaxes.sty
INPUT c:/texlive/2023/texmf-dist/tex/latex/fontaxes/fontaxes.sty
INPUT c:/texlive/2023/texmf-dist/tex/latex/fontaxes/fontaxes.sty
INPUT c:/texlive/2023/texmf-dist/tex/latex/fontaxes/fontaxes.sty
INPUT c:/texlive/2023/texmf-dist/tex/latex/fontaxes/fontaxes.sty
INPUT c:/texlive/2023/texmf-dist/tex/latex/fontaxes/fontaxes.sty
INPUT c:/texlive/2023/texmf-dist/tex/latex/fontaxes/fontaxes.sty
INPUT c:/texlive/2023/texmf-dist/tex/latex/fontaxes/fontaxes.sty
INPUT c:/texlive/2023/texmf-dist/tex/latex/libertine/LinLibertine_I.tex
INPUT c:/texlive/2023/texmf-dist/tex/latex/libertine/LinLibertine_I.tex
INPUT c:/texlive/2023/texmf-dist/tex/latex/libertine/LinLibertine_I.tex
INPUT c:/texlive/2023/texmf-dist/tex/latex/libertine/LinLibertine_I.tex
INPUT c:/texlive/2023/texmf-dist/tex/latex/libertine/LinLibertine_I.tex
INPUT c:/texlive/2023/texmf-dist/tex/latex/libertine/LinLibertine_I.tex
INPUT c:/texlive/2023/texmf-dist/tex/latex/libertine/LinLibertine_I.tex
INPUT c:/texlive/2023/texmf-dist/tex/latex/inconsolata/zi4.sty
INPUT c:/texlive/2023/texmf-dist/tex/latex/inconsolata/zi4.sty
INPUT c:/texlive/2023/texmf-dist/tex/latex/inconsolata/zi4.sty
INPUT c:/texlive/2023/texmf-dist/tex/latex/inconsolata/zi4.sty
INPUT c:/texlive/2023/texmf-dist/tex/latex/inconsolata/zi4.sty
INPUT c:/texlive/2023/texmf-dist/tex/latex/inconsolata/zi4.sty
INPUT c:/texlive/2023/texmf-dist/tex/latex/inconsolata/zi4.sty
INPUT c:/texlive/2023/texmf-dist/tex/latex/inconsolata/zi4.sty
INPUT c:/texlive/2023/texmf-dist/tex/latex/inconsolata/zi4.sty
INPUT c:/texlive/2023/texmf-dist/tex/latex/inconsolata/zi4.sty
INPUT c:/texlive/2023/texmf-dist/tex/latex/inconsolata/zi4.sty
INPUT c:/texlive/2023/texmf-dist/tex/latex/base/textcomp.sty
INPUT c:/texlive/2023/texmf-dist/tex/latex/xkeyval/xkeyval.sty
INPUT c:/texlive/2023/texmf-dist/tex/latex/newtx/newtxmath.sty
INPUT c:/texlive/2023/texmf-dist/tex/latex/newtx/newtxmath.sty
INPUT c:/texlive/2023/texmf-dist/tex/latex/newtx/newtxmath.sty
INPUT c:/texlive/2023/texmf-dist/tex/latex/newtx/newtxmath.sty
INPUT c:/texlive/2023/texmf-dist/tex/latex/newtx/newtxmath.sty
INPUT c:/texlive/2023/texmf-dist/tex/latex/newtx/newtxmath.sty
INPUT c:/texlive/2023/texmf-dist/tex/latex/newtx/newtxmath.sty
INPUT c:/texlive/2023/texmf-dist/tex/latex/newtx/newtxmath.sty
INPUT c:/texlive/2023/texmf-dist/tex/latex/newtx/newtxmath.sty
INPUT c:/texlive/2023/texmf-dist/tex/latex/newtx/newtxmath.sty
INPUT c:/texlive/2023/texmf-dist/tex/latex/newtx/newtxmath.sty
INPUT c:/texlive/2023/texmf-dist/tex/latex/amsmath/amsmath.sty
INPUT c:/texlive/2023/texmf-dist/tex/latex/base/ifthen.sty
INPUT c:/texlive/2023/texmf-dist/tex/latex/etoolbox/etoolbox.sty
INPUT c:/texlive/2023/texmf-dist/tex/generic/iftex/ifxetex.sty
INPUT c:/texlive/2023/texmf-dist/tex/generic/iftex/ifluatex.sty
INPUT c:/texlive/2023/texmf-dist/tex/latex/xkeyval/xkeyval.sty
INPUT c:/texlive/2023/texmf-dist/tex/latex/oberdiek/centernot.sty
INPUT c:/texlive/2023/texmf-dist/tex/latex/oberdiek/centernot.sty
INPUT c:/texlive/2023/texmf-dist/tex/latex/oberdiek/centernot.sty
INPUT c:/texlive/2023/texmf-dist/tex/latex/oberdiek/centernot.sty
INPUT c:/texlive/2023/texmf-dist/tex/latex/oberdiek/centernot.sty
INPUT c:/texlive/2023/texmf-dist/tex/latex/oberdiek/centernot.sty
INPUT c:/texlive/2023/texmf-dist/tex/latex/oberdiek/centernot.sty
INPUT c:/texlive/2023/texmf-dist/tex/latex/oberdiek/centernot.sty
INPUT c:/texlive/2023/texmf-dist/tex/latex/oberdiek/centernot.sty
INPUT c:/texlive/2023/texmf-dist/tex/latex/oberdiek/centernot.sty
INPUT c:/texlive/2023/texmf-dist/tex/latex/oberdiek/centernot.sty
INPUT c:/texlive/2023/texmf-dist/tex/generic/kastrup/binhex.tex
INPUT c:/texlive/2023/texmf-dist/tex/generic/kastrup/binhex.tex
INPUT c:/texlive/2023/texmf-dist/tex/generic/kastrup/binhex.tex
INPUT c:/texlive/2023/texmf-dist/tex/generic/kastrup/binhex.tex
INPUT c:/texlive/2023/texmf-dist/tex/generic/kastrup/binhex.tex
INPUT c:/texlive/2023/texmf-dist/tex/generic/kastrup/binhex.tex
INPUT c:/texlive/2023/texmf-dist/tex/generic/kastrup/binhex.tex
INPUT c:/texlive/2023/texmf-dist/tex/latex/caption/caption.sty
INPUT c:/texlive/2023/texmf-dist/tex/latex/caption/caption.sty
INPUT c:/texlive/2023/texmf-dist/tex/latex/caption/caption.sty
INPUT c:/texlive/2023/texmf-dist/tex/latex/caption/caption.sty
INPUT c:/texlive/2023/texmf-dist/tex/latex/caption/caption.sty
INPUT c:/texlive/2023/texmf-dist/tex/latex/caption/caption.sty
INPUT c:/texlive/2023/texmf-dist/tex/latex/caption/caption.sty
INPUT c:/texlive/2023/texmf-dist/tex/latex/caption/caption.sty
INPUT c:/texlive/2023/texmf-dist/tex/latex/caption/caption.sty
INPUT c:/texlive/2023/texmf-dist/tex/latex/caption/caption.sty
INPUT c:/texlive/2023/texmf-dist/tex/latex/caption/caption.sty
INPUT c:/texlive/2023/texmf-dist/tex/latex/caption/caption3.sty
INPUT c:/texlive/2023/texmf-dist/tex/latex/caption/caption3.sty
INPUT c:/texlive/2023/texmf-dist/tex/latex/caption/caption3.sty
INPUT c:/texlive/2023/texmf-dist/tex/latex/caption/caption3.sty
INPUT c:/texlive/2023/texmf-dist/tex/latex/caption/caption3.sty
INPUT c:/texlive/2023/texmf-dist/tex/latex/caption/caption3.sty
INPUT c:/texlive/2023/texmf-dist/tex/latex/caption/caption3.sty
INPUT c:/texlive/2023/texmf-dist/tex/latex/caption/caption3.sty
INPUT c:/texlive/2023/texmf-dist/tex/latex/caption/caption3.sty
INPUT c:/texlive/2023/texmf-dist/tex/latex/caption/caption3.sty
INPUT c:/texlive/2023/texmf-dist/tex/latex/caption/caption3.sty
INPUT c:/texlive/2023/texmf-dist/tex/latex/graphics/keyval.sty
INPUT c:/texlive/2023/texmf-dist/tex/latex/caption/caption-ams-smf.sto
INPUT c:/texlive/2023/texmf-dist/tex/latex/caption/caption-ams-smf.sto
INPUT c:/texlive/2023/texmf-dist/tex/latex/caption/caption-ams-smf.sto
INPUT c:/texlive/2023/texmf-dist/tex/latex/caption/caption-ams-smf.sto
INPUT c:/texlive/2023/texmf-dist/tex/latex/float/float.sty
INPUT c:/texlive/2023/texmf-dist/tex/latex/float/float.sty
INPUT c:/texlive/2023/texmf-dist/tex/latex/float/float.sty
INPUT c:/texlive/2023/texmf-dist/tex/latex/float/float.sty
INPUT c:/texlive/2023/texmf-dist/tex/latex/float/float.sty
INPUT c:/texlive/2023/texmf-dist/tex/latex/float/float.sty
INPUT c:/texlive/2023/texmf-dist/tex/latex/float/float.sty
INPUT c:/texlive/2023/texmf-dist/tex/latex/float/float.sty
INPUT c:/texlive/2023/texmf-dist/tex/latex/float/float.sty
INPUT c:/texlive/2023/texmf-dist/tex/latex/float/float.sty
INPUT c:/texlive/2023/texmf-dist/tex/latex/float/float.sty
INPUT c:/texlive/2023/texmf-dist/tex/latex/comment/comment.sty
INPUT c:/texlive/2023/texmf-dist/tex/latex/comment/comment.sty
INPUT c:/texlive/2023/texmf-dist/tex/latex/comment/comment.sty
INPUT c:/texlive/2023/texmf-dist/tex/latex/comment/comment.sty
INPUT c:/texlive/2023/texmf-dist/tex/latex/comment/comment.sty
INPUT c:/texlive/2023/texmf-dist/tex/latex/comment/comment.sty
INPUT c:/texlive/2023/texmf-dist/tex/latex/comment/comment.sty
INPUT c:/texlive/2023/texmf-dist/tex/latex/comment/comment.sty
INPUT c:/texlive/2023/texmf-dist/tex/latex/comment/comment.sty
INPUT c:/texlive/2023/texmf-dist/tex/latex/comment/comment.sty
INPUT c:/texlive/2023/texmf-dist/tex/latex/comment/comment.sty
INPUT c:/texlive/2023/texmf-dist/tex/latex/fancyhdr/fancyhdr.sty
INPUT c:/texlive/2023/texmf-dist/tex/latex/fancyhdr/fancyhdr.sty
INPUT c:/texlive/2023/texmf-dist/tex/latex/fancyhdr/fancyhdr.sty
INPUT c:/texlive/2023/texmf-dist/tex/latex/fancyhdr/fancyhdr.sty
INPUT c:/texlive/2023/texmf-dist/tex/latex/fancyhdr/fancyhdr.sty
INPUT c:/texlive/2023/texmf-dist/tex/latex/fancyhdr/fancyhdr.sty
INPUT c:/texlive/2023/texmf-dist/tex/latex/fancyhdr/fancyhdr.sty
INPUT c:/texlive/2023/texmf-dist/tex/latex/fancyhdr/fancyhdr.sty
INPUT c:/texlive/2023/texmf-dist/tex/latex/fancyhdr/fancyhdr.sty
INPUT c:/texlive/2023/texmf-dist/tex/latex/fancyhdr/fancyhdr.sty
INPUT c:/texlive/2023/texmf-dist/tex/latex/fancyhdr/fancyhdr.sty
INPUT c:/texlive/2023/texmf-dist/tex/latex/libertine/T1LinuxLibertineT-TLF.fd
INPUT c:/texlive/2023/texmf-dist/tex/latex/libertine/T1LinuxLibertineT-TLF.fd
INPUT c:/texlive/2023/texmf-dist/tex/latex/libertine/T1LinuxLibertineT-TLF.fd
INPUT c:/texlive/2023/texmf-dist/tex/latex/libertine/T1LinuxLibertineT-TLF.fd
INPUT c:/texlive/2023/texmf-dist/fonts/tfm/public/libertine/LinLibertineT-tlf-t1.tfm
INPUT c:/texlive/2023/texmf-dist/tex/latex/hyperref/hyperref.sty
INPUT c:/texlive/2023/texmf-dist/tex/latex/preprint/balance.sty
INPUT c:/texlive/2023/texmf-dist/tex/latex/preprint/balance.sty
INPUT c:/texlive/2023/texmf-dist/tex/latex/preprint/balance.sty
INPUT c:/texlive/2023/texmf-dist/tex/latex/preprint/balance.sty
INPUT c:/texlive/2023/texmf-dist/tex/latex/preprint/balance.sty
INPUT c:/texlive/2023/texmf-dist/tex/latex/preprint/balance.sty
INPUT c:/texlive/2023/texmf-dist/tex/latex/preprint/balance.sty
INPUT c:/texlive/2023/texmf-dist/tex/latex/preprint/balance.sty
INPUT c:/texlive/2023/texmf-dist/tex/latex/preprint/balance.sty
INPUT c:/texlive/2023/texmf-dist/tex/latex/preprint/balance.sty
INPUT c:/texlive/2023/texmf-dist/tex/latex/preprint/balance.sty
INPUT c:/texlive/2023/texmf-dist/tex/latex/l3backend/l3backend-pdftex.def
INPUT c:/texlive/2023/texmf-dist/tex/latex/l3backend/l3backend-pdftex.def
INPUT c:/texlive/2023/texmf-dist/tex/latex/l3backend/l3backend-pdftex.def
INPUT c:/texlive/2023/texmf-dist/tex/latex/l3backend/l3backend-pdftex.def
INPUT c:/texlive/2023/texmf-dist/tex/latex/l3backend/l3backend-pdftex.def
INPUT c:/texlive/2023/texmf-dist/tex/latex/l3backend/l3backend-pdftex.def
INPUT c:/texlive/2023/texmf-dist/tex/latex/l3backend/l3backend-pdftex.def
INPUT c:/texlive/2023/texmf-dist/tex/latex/l3backend/l3backend-pdftex.def
INPUT c:/texlive/2023/texmf-dist/tex/latex/l3backend/l3backend-pdftex.def
INPUT c:/texlive/2023/texmf-dist/tex/latex/l3backend/l3backend-pdftex.def
INPUT c:/texlive/2023/texmf-dist/tex/latex/l3backend/l3backend-pdftex.def
INPUT ./sample-sigconf.aux
INPUT sample-sigconf.aux
INPUT sample-sigconf.aux
OUTPUT sample-sigconf.aux
INPUT c:/texlive/2023/texmf-dist/tex/latex/newtx/omlnxlmi.fd
INPUT c:/texlive/2023/texmf-dist/tex/latex/newtx/omlnxlmi.fd
INPUT c:/texlive/2023/texmf-dist/tex/latex/newtx/omlnxlmi.fd
INPUT c:/texlive/2023/texmf-dist/tex/latex/newtx/omlnxlmi.fd
INPUT c:/texlive/2023/texmf-dist/tex/latex/newtx/untxexa.fd
INPUT c:/texlive/2023/texmf-dist/tex/latex/newtx/untxexa.fd
INPUT c:/texlive/2023/texmf-dist/tex/latex/newtx/untxexa.fd
INPUT c:/texlive/2023/texmf-dist/tex/latex/newtx/untxexa.fd
INPUT c:/texlive/2023/texmf-dist/tex/latex/newtx/lmsntxsy.fd
INPUT c:/texlive/2023/texmf-dist/tex/latex/newtx/lmsntxsy.fd
INPUT c:/texlive/2023/texmf-dist/tex/latex/newtx/lmsntxsy.fd
INPUT c:/texlive/2023/texmf-dist/tex/latex/newtx/lmsntxsy.fd
INPUT c:/texlive/2023/texmf-dist/tex/latex/newtx/lmxntxexx.fd
INPUT c:/texlive/2023/texmf-dist/tex/latex/newtx/lmxntxexx.fd
INPUT c:/texlive/2023/texmf-dist/tex/latex/newtx/lmxntxexx.fd
INPUT c:/texlive/2023/texmf-dist/tex/latex/newtx/lmxntxexx.fd
INPUT c:/texlive/2023/texmf-dist/fonts/tfm/public/libertine/LinLibertineT-tlf-t1.tfm
INPUT c:/texlive/2023/texmf-dist/tex/latex/libertine/OT1LinuxLibertineT-TLF.fd
INPUT c:/texlive/2023/texmf-dist/tex/latex/libertine/OT1LinuxLibertineT-TLF.fd
INPUT c:/texlive/2023/texmf-dist/tex/latex/libertine/OT1LinuxLibertineT-TLF.fd
INPUT c:/texlive/2023/texmf-dist/tex/latex/libertine/OT1LinuxLibertineT-TLF.fd
INPUT c:/texlive/2023/texmf-dist/fonts/tfm/public/libertine/LinLibertineT-tlf-ot1.tfm
INPUT c:/texlive/2023/texmf-dist/tex/latex/cmap/ot1.cmap
INPUT c:/texlive/2023/texmf-dist/tex/latex/cmap/ot1.cmap
INPUT c:/texlive/2023/texmf-dist/tex/latex/cmap/ot1.cmap
INPUT c:/texlive/2023/texmf-dist/fonts/tfm/public/libertine/LinLibertineT-tlf-ot1.tfm
INPUT c:/texlive/2023/texmf-dist/fonts/tfm/public/newtx/nxlmi7.tfm
INPUT c:/texlive/2023/texmf-dist/tex/latex/mmap/oml.cmap
INPUT c:/texlive/2023/texmf-dist/tex/latex/mmap/oml.cmap
INPUT c:/texlive/2023/texmf-dist/tex/latex/mmap/oml.cmap
INPUT c:/texlive/2023/texmf-dist/fonts/tfm/public/newtx/nxlmi5.tfm
INPUT c:/texlive/2023/texmf-dist/fonts/tfm/public/newtx/ntxsy7.tfm
INPUT c:/texlive/2023/texmf-dist/fonts/tfm/public/newtx/ntxsy5.tfm
INPUT c:/texlive/2023/texmf-dist/fonts/tfm/public/newtx/ntxexx.tfm
INPUT c:/texlive/2023/texmf-dist/fonts/tfm/public/newtx/ntxexx.tfm
INPUT c:/texlive/2023/texmf-dist/tex/latex/amsfonts/umsa.fd
INPUT c:/texlive/2023/texmf-dist/tex/latex/amsfonts/umsa.fd
INPUT c:/texlive/2023/texmf-dist/tex/latex/amsfonts/umsa.fd
INPUT c:/texlive/2023/texmf-dist/tex/latex/amsfonts/umsa.fd
INPUT c:/texlive/2023/texmf-dist/fonts/tfm/public/amsfonts/symbols/msam7.tfm
INPUT c:/texlive/2023/texmf-dist/fonts/tfm/public/amsfonts/symbols/msam5.tfm
INPUT c:/texlive/2023/texmf-dist/tex/latex/amsfonts/umsb.fd
INPUT c:/texlive/2023/texmf-dist/tex/latex/amsfonts/umsb.fd
INPUT c:/texlive/2023/texmf-dist/tex/latex/amsfonts/umsb.fd
INPUT c:/texlive/2023/texmf-dist/tex/latex/amsfonts/umsb.fd
INPUT c:/texlive/2023/texmf-dist/fonts/tfm/public/amsfonts/symbols/msbm7.tfm
INPUT c:/texlive/2023/texmf-dist/fonts/tfm/public/amsfonts/symbols/msbm5.tfm
INPUT c:/texlive/2023/texmf-dist/tex/latex/newtx/untxmia.fd
INPUT c:/texlive/2023/texmf-dist/tex/latex/newtx/untxmia.fd
INPUT c:/texlive/2023/texmf-dist/tex/latex/newtx/untxmia.fd
INPUT c:/texlive/2023/texmf-dist/tex/latex/newtx/untxmia.fd
INPUT c:/texlive/2023/texmf-dist/fonts/tfm/public/newtx/nxlmia.tfm
INPUT c:/texlive/2023/texmf-dist/fonts/tfm/public/newtx/nxlmia.tfm
INPUT c:/texlive/2023/texmf-dist/tex/latex/newtx/untxsym.fd
INPUT c:/texlive/2023/texmf-dist/tex/latex/newtx/untxsym.fd
INPUT c:/texlive/2023/texmf-dist/tex/latex/newtx/untxsym.fd
INPUT c:/texlive/2023/texmf-dist/tex/latex/newtx/untxsym.fd
INPUT c:/texlive/2023/texmf-dist/fonts/tfm/public/newtx/ntxsym.tfm
INPUT c:/texlive/2023/texmf-dist/fonts/tfm/public/newtx/ntxsym.tfm
INPUT c:/texlive/2023/texmf-dist/tex/latex/newtx/untxsyc.fd
INPUT c:/texlive/2023/texmf-dist/tex/latex/newtx/untxsyc.fd
INPUT c:/texlive/2023/texmf-dist/tex/latex/newtx/untxsyc.fd
INPUT c:/texlive/2023/texmf-dist/tex/latex/newtx/untxsyc.fd
INPUT c:/texlive/2023/texmf-dist/fonts/tfm/public/newtx/ntxsyc.tfm
INPUT c:/texlive/2023/texmf-dist/fonts/tfm/public/newtx/ntxsyc.tfm
INPUT c:/texlive/2023/texmf-dist/fonts/tfm/public/newtx/ntxexa.tfm
INPUT c:/texlive/2023/texmf-dist/fonts/tfm/public/newtx/ntxexa.tfm
INPUT ./sample-sigconf.out
INPUT sample-sigconf.out
INPUT ./sample-sigconf.out
INPUT sample-sigconf.out
INPUT ./sample-sigconf.out
INPUT sample-sigconf.out
INPUT ./sample-sigconf.out
INPUT sample-sigconf.out
INPUT ./sample-sigconf.out
INPUT ./sample-sigconf.out
OUTPUT sample-sigconf.out
INPUT c:/texlive/2023/texmf-dist/tex/context/base/mkii/supp-pdf.mkii
INPUT c:/texlive/2023/texmf-dist/tex/context/base/mkii/supp-pdf.mkii
INPUT c:/texlive/2023/texmf-dist/tex/context/base/mkii/supp-pdf.mkii
INPUT c:/texlive/2023/texmf-dist/tex/context/base/mkii/supp-pdf.mkii
INPUT c:/texlive/2023/texmf-dist/tex/latex/epstopdf-pkg/epstopdf-base.sty
INPUT c:/texlive/2023/texmf-dist/tex/latex/epstopdf-pkg/epstopdf-base.sty
INPUT c:/texlive/2023/texmf-dist/tex/latex/epstopdf-pkg/epstopdf-base.sty
INPUT c:/texlive/2023/texmf-dist/tex/latex/epstopdf-pkg/epstopdf-base.sty
INPUT c:/texlive/2023/texmf-dist/tex/latex/epstopdf-pkg/epstopdf-base.sty
INPUT c:/texlive/2023/texmf-dist/tex/latex/epstopdf-pkg/epstopdf-base.sty
INPUT c:/texlive/2023/texmf-dist/tex/latex/epstopdf-pkg/epstopdf-base.sty
INPUT c:/texlive/2023/texmf-dist/tex/latex/epstopdf-pkg/epstopdf-base.sty
INPUT c:/texlive/2023/texmf-dist/tex/latex/epstopdf-pkg/epstopdf-base.sty
INPUT c:/texlive/2023/texmf-dist/tex/latex/epstopdf-pkg/epstopdf-base.sty
INPUT c:/texlive/2023/texmf-dist/tex/latex/epstopdf-pkg/epstopdf-base.sty
INPUT c:/texlive/2023/texmf-dist/tex/latex/latexconfig/epstopdf-sys.cfg
INPUT c:/texlive/2023/texmf-dist/tex/latex/latexconfig/epstopdf-sys.cfg
INPUT c:/texlive/2023/texmf-dist/tex/latex/latexconfig/epstopdf-sys.cfg
INPUT c:/texlive/2023/texmf-dist/tex/latex/latexconfig/epstopdf-sys.cfg
INPUT c:/texlive/2023/texmf-dist/tex/latex/upquote/upquote.sty
INPUT c:/texlive/2023/texmf-dist/tex/latex/upquote/upquote.sty
INPUT c:/texlive/2023/texmf-dist/tex/latex/upquote/upquote.sty
INPUT c:/texlive/2023/texmf-dist/tex/latex/upquote/upquote.sty
INPUT c:/texlive/2023/texmf-dist/tex/latex/upquote/upquote.sty
INPUT c:/texlive/2023/texmf-dist/tex/latex/upquote/upquote.sty
INPUT c:/texlive/2023/texmf-dist/tex/latex/upquote/upquote.sty
INPUT c:/texlive/2023/texmf-dist/tex/latex/upquote/upquote.sty
INPUT c:/texlive/2023/texmf-dist/tex/latex/upquote/upquote.sty
INPUT c:/texlive/2023/texmf-dist/tex/latex/upquote/upquote.sty
INPUT c:/texlive/2023/texmf-dist/tex/latex/upquote/upquote.sty
INPUT c:/texlive/2023/texmf-dist/tex/latex/base/textcomp.sty
INPUT c:/texlive/2023/texmf-dist/fonts/tfm/public/libertine/LinLibertineT-tlf-t1.tfm
INPUT c:/texlive/2023/texmf-dist/tex/latex/libertine/T1LinuxBiolinumT-TLF.fd
INPUT c:/texlive/2023/texmf-dist/tex/latex/libertine/T1LinuxBiolinumT-TLF.fd
INPUT c:/texlive/2023/texmf-dist/tex/latex/libertine/T1LinuxBiolinumT-TLF.fd
INPUT c:/texlive/2023/texmf-dist/tex/latex/libertine/T1LinuxBiolinumT-TLF.fd
INPUT c:/texlive/2023/texmf-dist/fonts/tfm/public/libertine/LinBiolinumT-tlf-t1.tfm
INPUT c:/texlive/2023/texmf-dist/fonts/tfm/public/libertine/LinBiolinumTB-tlf-t1.tfm
INPUT c:/texlive/2023/texmf-dist/fonts/tfm/public/libertine/LinLibertineT-tlf-t1.tfm
INPUT c:/texlive/2023/texmf-dist/fonts/tfm/public/libertine/LinLibertineT-tlf-ot1.tfm
INPUT c:/texlive/2023/texmf-dist/fonts/tfm/public/libertine/LinLibertineT-tlf-ot1.tfm
INPUT c:/texlive/2023/texmf-dist/fonts/tfm/public/libertine/LinLibertineT-tlf-ot1.tfm
INPUT c:/texlive/2023/texmf-dist/fonts/tfm/public/newtx/nxlmi.tfm
INPUT c:/texlive/2023/texmf-dist/fonts/tfm/public/newtx/nxlmi.tfm
INPUT c:/texlive/2023/texmf-dist/fonts/tfm/public/newtx/nxlmi7.tfm
INPUT c:/texlive/2023/texmf-dist/fonts/tfm/public/newtx/ntxsy.tfm
INPUT c:/texlive/2023/texmf-dist/fonts/tfm/public/newtx/ntxsy.tfm
INPUT c:/texlive/2023/texmf-dist/fonts/tfm/public/newtx/ntxsy7.tfm
INPUT c:/texlive/2023/texmf-dist/fonts/tfm/public/newtx/ntxexx.tfm
INPUT c:/texlive/2023/texmf-dist/fonts/tfm/public/newtx/ntxexx.tfm
INPUT c:/texlive/2023/texmf-dist/fonts/tfm/public/newtx/ntxexx.tfm
INPUT c:/texlive/2023/texmf-dist/fonts/tfm/public/amsfonts/symbols/msam10.tfm
INPUT c:/texlive/2023/texmf-dist/tex/latex/microtype/mt-msa.cfg
INPUT c:/texlive/2023/texmf-dist/tex/latex/microtype/mt-msa.cfg
INPUT c:/texlive/2023/texmf-dist/tex/latex/microtype/mt-msa.cfg
INPUT c:/texlive/2023/texmf-dist/tex/latex/microtype/mt-msa.cfg
INPUT c:/texlive/2023/texmf-dist/fonts/tfm/public/amsfonts/symbols/msam10.tfm
INPUT c:/texlive/2023/texmf-dist/fonts/tfm/public/amsfonts/symbols/msam7.tfm
INPUT c:/texlive/2023/texmf-dist/fonts/tfm/public/amsfonts/symbols/msbm10.tfm
INPUT c:/texlive/2023/texmf-dist/tex/latex/microtype/mt-msb.cfg
INPUT c:/texlive/2023/texmf-dist/tex/latex/microtype/mt-msb.cfg
INPUT c:/texlive/2023/texmf-dist/tex/latex/microtype/mt-msb.cfg
INPUT c:/texlive/2023/texmf-dist/tex/latex/microtype/mt-msb.cfg
INPUT c:/texlive/2023/texmf-dist/fonts/tfm/public/amsfonts/symbols/msbm10.tfm
INPUT c:/texlive/2023/texmf-dist/fonts/tfm/public/amsfonts/symbols/msbm7.tfm
INPUT c:/texlive/2023/texmf-dist/fonts/tfm/public/newtx/nxlmia.tfm
INPUT c:/texlive/2023/texmf-dist/fonts/tfm/public/newtx/nxlmia.tfm
INPUT c:/texlive/2023/texmf-dist/fonts/tfm/public/newtx/nxlmia.tfm
INPUT c:/texlive/2023/texmf-dist/fonts/tfm/public/newtx/ntxsym.tfm
INPUT c:/texlive/2023/texmf-dist/fonts/tfm/public/newtx/ntxsym.tfm
INPUT c:/texlive/2023/texmf-dist/fonts/tfm/public/newtx/ntxsym.tfm
INPUT c:/texlive/2023/texmf-dist/fonts/tfm/public/newtx/ntxsyc.tfm
INPUT c:/texlive/2023/texmf-dist/fonts/tfm/public/newtx/ntxsyc.tfm
INPUT c:/texlive/2023/texmf-dist/fonts/tfm/public/newtx/ntxsyc.tfm
INPUT c:/texlive/2023/texmf-dist/fonts/tfm/public/newtx/ntxexa.tfm
INPUT c:/texlive/2023/texmf-dist/fonts/tfm/public/newtx/ntxexa.tfm
INPUT c:/texlive/2023/texmf-dist/fonts/tfm/public/newtx/ntxexa.tfm
INPUT c:/texlive/2023/texmf-dist/tex/latex/libertine/TS1LinuxLibertineT-TLF.fd
INPUT c:/texlive/2023/texmf-dist/tex/latex/libertine/TS1LinuxLibertineT-TLF.fd
INPUT c:/texlive/2023/texmf-dist/tex/latex/libertine/TS1LinuxLibertineT-TLF.fd
INPUT c:/texlive/2023/texmf-dist/tex/latex/libertine/TS1LinuxLibertineT-TLF.fd
INPUT c:/texlive/2023/texmf-dist/fonts/tfm/public/libertine/LinLibertineT-tlf-ts1.tfm
INPUT c:/texlive/2023/texmf-dist/fonts/tfm/public/libertine/LinLibertineT-tlf-t1.tfm
INPUT c:/texlive/2023/texmf-dist/fonts/tfm/public/libertine/LinLibertineT-tlf-ot1.tfm
INPUT c:/texlive/2023/texmf-dist/fonts/tfm/public/newtx/nxlmi.tfm
INPUT c:/texlive/2023/texmf-dist/fonts/tfm/public/newtx/ntxsy.tfm
INPUT c:/texlive/2023/texmf-dist/fonts/tfm/public/newtx/ntxexx.tfm
INPUT c:/texlive/2023/texmf-dist/fonts/tfm/public/amsfonts/symbols/msam10.tfm
INPUT c:/texlive/2023/texmf-dist/fonts/tfm/public/amsfonts/symbols/msbm10.tfm
INPUT c:/texlive/2023/texmf-dist/fonts/tfm/public/newtx/nxlmia.tfm
INPUT c:/texlive/2023/texmf-dist/fonts/tfm/public/newtx/ntxsym.tfm
INPUT c:/texlive/2023/texmf-dist/fonts/tfm/public/newtx/ntxsyc.tfm
INPUT c:/texlive/2023/texmf-dist/fonts/tfm/public/newtx/ntxexa.tfm
INPUT ./sampleteaser.pdf
INPUT sampleteaser.pdf
INPUT ./sampleteaser.pdf
INPUT ./sampleteaser.pdf
INPUT c:/texlive/2023/texmf-dist/fonts/tfm/public/libertine/LinLibertineTB-tlf-t1.tfm
INPUT c:/texlive/2023/texmf-dist/fonts/tfm/public/libertine/LinLibertineT-tlf-t1.tfm
INPUT c:/texlive/2023/texmf-dist/fonts/tfm/public/libertine/LinLibertineT-tlf-ts1.tfm
INPUT c:/texlive/2023/texmf-dist/fonts/tfm/public/libertine/LinLibertineTI-tlf-t1.tfm
INPUT c:/texlive/2023/texmf-dist/fonts/tfm/public/libertine/LinLibertineT-tlf-ts1.tfm
INPUT c:/texlive/2023/texmf-dist/fonts/tfm/public/libertine/LinLibertineTB-tlf-t1.tfm
INPUT c:/texlive/2023/texmf-dist/fonts/tfm/public/libertine/LinLibertineT-tlf-ot1.tfm
INPUT c:/texlive/2023/texmf-dist/fonts/tfm/public/newtx/nxlmi.tfm
INPUT c:/texlive/2023/texmf-dist/fonts/tfm/public/newtx/ntxsy.tfm
INPUT c:/texlive/2023/texmf-dist/fonts/tfm/public/newtx/ntxexx.tfm
INPUT c:/texlive/2023/texmf-dist/fonts/tfm/public/amsfonts/symbols/msam10.tfm
INPUT c:/texlive/2023/texmf-dist/fonts/tfm/public/amsfonts/symbols/msbm10.tfm
INPUT c:/texlive/2023/texmf-dist/fonts/tfm/public/newtx/nxlmia.tfm
INPUT c:/texlive/2023/texmf-dist/fonts/tfm/public/newtx/ntxsym.tfm
INPUT c:/texlive/2023/texmf-dist/fonts/tfm/public/newtx/ntxsyc.tfm
INPUT c:/texlive/2023/texmf-dist/fonts/tfm/public/newtx/ntxexa.tfm
INPUT c:/texlive/2023/texmf-dist/fonts/tfm/public/libertine/LinLibertineT-tlf-t1.tfm
INPUT c:/texlive/2023/texmf-dist/fonts/tfm/public/libertine/LinLibertineT-tlf-ts1.tfm
INPUT c:/texlive/2023/texmf-dist/fonts/tfm/public/libertine/LinLibertineTI-tlf-t1.tfm
INPUT c:/texlive/2023/texmf-dist/fonts/tfm/public/libertine/LinLibertineT-tlf-t1.tfm
INPUT c:/texlive/2023/texmf-dist/fonts/tfm/public/libertine/LinLibertineTB-tlf-t1.tfm
INPUT c:/texlive/2023/texmf-dist/fonts/tfm/public/libertine/LinLibertineTI-tlf-t1.tfm
INPUT c:/texlive/2023/texmf-dist/fonts/tfm/public/libertine/LinLibertineT-tlf-ot1.tfm
INPUT c:/texlive/2023/texmf-dist/fonts/tfm/public/libertine/LinLibertineT-tlf-ot1.tfm
INPUT c:/texlive/2023/texmf-dist/fonts/tfm/public/newtx/nxlmi7.tfm
INPUT c:/texlive/2023/texmf-dist/fonts/tfm/public/newtx/nxlmi5.tfm
INPUT c:/texlive/2023/texmf-dist/fonts/tfm/public/newtx/ntxsy7.tfm
INPUT c:/texlive/2023/texmf-dist/fonts/tfm/public/newtx/ntxsy5.tfm
INPUT c:/texlive/2023/texmf-dist/fonts/tfm/public/newtx/ntxexx.tfm
INPUT c:/texlive/2023/texmf-dist/fonts/tfm/public/newtx/ntxexx.tfm
INPUT c:/texlive/2023/texmf-dist/fonts/tfm/public/amsfonts/symbols/msam10.tfm
INPUT c:/texlive/2023/texmf-dist/fonts/tfm/public/amsfonts/symbols/msam7.tfm
INPUT c:/texlive/2023/texmf-dist/fonts/tfm/public/amsfonts/symbols/msbm10.tfm
INPUT c:/texlive/2023/texmf-dist/fonts/tfm/public/amsfonts/symbols/msbm7.tfm
INPUT c:/texlive/2023/texmf-dist/fonts/tfm/public/newtx/nxlmia.tfm
INPUT c:/texlive/2023/texmf-dist/fonts/tfm/public/newtx/nxlmia.tfm
INPUT c:/texlive/2023/texmf-dist/fonts/tfm/public/newtx/ntxsym.tfm
INPUT c:/texlive/2023/texmf-dist/fonts/tfm/public/newtx/ntxsym.tfm
INPUT c:/texlive/2023/texmf-dist/fonts/tfm/public/newtx/ntxsyc.tfm
INPUT c:/texlive/2023/texmf-dist/fonts/tfm/public/newtx/ntxsyc.tfm
INPUT c:/texlive/2023/texmf-dist/fonts/tfm/public/newtx/ntxexa.tfm
INPUT c:/texlive/2023/texmf-dist/fonts/tfm/public/newtx/ntxexa.tfm
INPUT c:/texlive/2023/texmf-dist/tex/latex/inconsolata/t1zi4.fd
INPUT c:/texlive/2023/texmf-dist/tex/latex/inconsolata/t1zi4.fd
INPUT c:/texlive/2023/texmf-dist/tex/latex/inconsolata/t1zi4.fd
INPUT c:/texlive/2023/texmf-dist/tex/latex/inconsolata/t1zi4.fd
INPUT c:/texlive/2023/texmf-dist/fonts/tfm/public/inconsolata/t1-zi4r-4.tfm
INPUT c:/texlive/2023/texmf-dist/fonts/vf/public/libertine/LinBiolinumTB-tlf-t1.vf
INPUT c:/texlive/2023/texmf-dist/fonts/tfm/public/libertine/LinBiolinumTB-tlf-t1--base.tfm
INPUT c:/texlive/2023/texmf-var/fonts/map/pdftex/updmap/pdftex.map
INPUT c:/texlive/2023/texmf-dist/fonts/enc/dvips/libertine/lbtn_25tcsq.enc
INPUT c:/texlive/2023/texmf-dist/fonts/vf/public/libertine/LinLibertineT-tlf-t1.vf
INPUT c:/texlive/2023/texmf-dist/fonts/tfm/public/libertine/LinLibertineT-tlf-t1--base.tfm
INPUT c:/texlive/2023/texmf-dist/fonts/enc/dvips/libertine/lbtn_76gpa5.enc
INPUT c:/texlive/2023/texmf-dist/fonts/vf/public/libertine/LinLibertineT-tlf-ts1.vf
INPUT c:/texlive/2023/texmf-dist/fonts/tfm/public/libertine/LinLibertineT-tlf-ts1--base.tfm
INPUT c:/texlive/2023/texmf-dist/fonts/enc/dvips/libertine/lbtn_naooyc.enc
INPUT c:/texlive/2023/texmf-dist/fonts/vf/public/libertine/LinLibertineT-tlf-t1.vf
INPUT c:/texlive/2023/texmf-dist/fonts/tfm/public/libertine/LinLibertineT-tlf-t1--base.tfm
INPUT c:/texlive/2023/texmf-dist/fonts/vf/public/libertine/LinLibertineTB-tlf-t1.vf
INPUT c:/texlive/2023/texmf-dist/fonts/tfm/public/libertine/LinLibertineTB-tlf-t1--base.tfm
INPUT c:/texlive/2023/texmf-dist/fonts/enc/dvips/libertine/lbtn_nh77jq.enc
INPUT c:/texlive/2023/texmf-dist/fonts/vf/public/libertine/LinLibertineTB-tlf-t1.vf
INPUT c:/texlive/2023/texmf-dist/fonts/tfm/public/libertine/LinLibertineTB-tlf-t1--base.tfm
INPUT c:/texlive/2023/texmf-dist/fonts/vf/public/libertine/LinLibertineT-tlf-t1.vf
INPUT c:/texlive/2023/texmf-dist/fonts/tfm/public/libertine/LinLibertineT-tlf-t1--base.tfm
INPUT c:/texlive/2023/texmf-dist/fonts/vf/public/libertine/LinLibertineT-tlf-t1.vf
INPUT c:/texlive/2023/texmf-dist/fonts/tfm/public/libertine/LinLibertineT-tlf-t1--base.tfm
INPUT c:/texlive/2023/texmf-dist/fonts/vf/public/libertine/LinLibertineT-tlf-ts1.vf
INPUT c:/texlive/2023/texmf-dist/fonts/tfm/public/libertine/LinLibertineT-tlf-ts1--base.tfm
INPUT c:/texlive/2023/texmf-dist/fonts/vf/public/newtx/ntxsy.vf
INPUT c:/texlive/2023/texmf-dist/fonts/tfm/public/newtx/txsys.tfm
INPUT c:/texlive/2023/texmf-dist/fonts/tfm/public/newtx/txex-bar.tfm
INPUT c:/texlive/2023/texmf-dist/fonts/vf/public/libertine/LinLibertineTI-tlf-t1.vf
INPUT c:/texlive/2023/texmf-dist/fonts/tfm/public/libertine/LinLibertineTI-tlf-t1--base.tfm
INPUT c:/texlive/2023/texmf-dist/fonts/enc/dvips/libertine/lbtn_7grukw.enc
INPUT c:/texlive/2023/texmf-dist/fonts/vf/public/libertine/LinLibertineT-tlf-ts1.vf
INPUT c:/texlive/2023/texmf-dist/fonts/tfm/public/libertine/LinLibertineT-tlf-ts1--base.tfm
INPUT c:/texlive/2023/texmf-dist/fonts/vf/public/libertine/LinLibertineT-tlf-t1.vf
INPUT c:/texlive/2023/texmf-dist/fonts/tfm/public/libertine/LinLibertineT-tlf-t1--base.tfm
INPUT c:/texlive/2023/texmf-dist/fonts/vf/public/libertine/LinLibertineTI-tlf-t1.vf
INPUT c:/texlive/2023/texmf-dist/fonts/tfm/public/libertine/LinLibertineTI-tlf-t1--base.tfm
INPUT c:/texlive/2023/texmf-dist/fonts/vf/public/libertine/LinLibertineT-tlf-ts1.vf
INPUT c:/texlive/2023/texmf-dist/fonts/tfm/public/libertine/LinLibertineT-tlf-ts1--base.tfm
INPUT c:/texlive/2023/texmf-dist/fonts/vf/public/libertine/LinLibertineTB-tlf-t1.vf
INPUT c:/texlive/2023/texmf-dist/fonts/tfm/public/libertine/LinLibertineTB-tlf-t1--base.tfm
INPUT c:/texlive/2023/texmf-dist/fonts/vf/public/libertine/LinLibertineT-tlf-t1.vf
INPUT c:/texlive/2023/texmf-dist/fonts/tfm/public/libertine/LinLibertineT-tlf-t1--base.tfm
INPUT c:/texlive/2023/texmf-dist/fonts/vf/public/libertine/LinLibertineTI-tlf-t1.vf
INPUT c:/texlive/2023/texmf-dist/fonts/tfm/public/libertine/LinLibertineTI-tlf-t1--base.tfm
INPUT c:/texlive/2023/texmf-dist/fonts/tfm/public/libertine/LinLibertineTI-tlf-t1.tfm
INPUT c:/texlive/2023/texmf-dist/fonts/tfm/public/libertine/LinBiolinumT-tlf-t1.tfm
INPUT c:/texlive/2023/texmf-dist/fonts/tfm/public/libertine/LinBiolinumT-tlf-t1.tfm
INPUT c:/texlive/2023/texmf-dist/fonts/vf/public/libertine/LinBiolinumT-tlf-t1.vf
INPUT c:/texlive/2023/texmf-dist/fonts/tfm/public/libertine/LinBiolinumT-tlf-t1--base.tfm
INPUT c:/texlive/2023/texmf-dist/fonts/enc/dvips/inconsolata/i4-t1-4.enc
INPUT c:/texlive/2023/texmf-dist/fonts/vf/public/libertine/LinLibertineTI-tlf-t1.vf
INPUT c:/texlive/2023/texmf-dist/fonts/tfm/public/libertine/LinLibertineTI-tlf-t1--base.tfm
INPUT c:/texlive/2023/texmf-dist/fonts/vf/public/newtx/nxlmi.vf
INPUT c:/texlive/2023/texmf-dist/fonts/tfm/public/newtx/LibertineMathMI.tfm
INPUT c:/texlive/2023/texmf-dist/fonts/tfm/public/newtx/NewTXMI.tfm
INPUT c:/texlive/2023/texmf-dist/fonts/tfm/public/newtx/stxscr.tfm
INPUT c:/texlive/2023/texmf-dist/fonts/vf/public/newtx/nxlmia.vf
INPUT c:/texlive/2023/texmf-dist/fonts/tfm/public/newtx/LibertineMathRM.tfm
INPUT c:/texlive/2023/texmf-dist/fonts/tfm/public/newtx/txmiaSTbb.tfm
INPUT c:/texlive/2023/texmf-dist/fonts/tfm/public/newtx/txmiaX.tfm
INPUT c:/texlive/2023/texmf-dist/fonts/vf/public/libertine/LinLibertineT-tlf-ot1.vf
INPUT c:/texlive/2023/texmf-dist/fonts/tfm/public/libertine/LinLibertineT-tlf-ot1--base.tfm
INPUT c:/texlive/2023/texmf-dist/fonts/enc/dvips/libertine/lbtn_oexx6f.enc
INPUT c:/texlive/2023/texmf-dist/fonts/vf/public/libertine/LinLibertineT-tlf-ot1.vf
INPUT c:/texlive/2023/texmf-dist/fonts/tfm/public/libertine/LinLibertineT-tlf-ot1--base.tfm
INPUT c:/texlive/2023/texmf-dist/fonts/vf/public/newtx/nxlmi7.vf
INPUT c:/texlive/2023/texmf-dist/fonts/tfm/public/newtx/LibertineMathMI7.tfm
INPUT c:/texlive/2023/texmf-dist/fonts/tfm/public/newtx/NewTXMI7.tfm
INPUT c:/texlive/2023/texmf-dist/fonts/tfm/public/newtx/stxscr.tfm
INPUT c:/texlive/2023/texmf-dist/fonts/vf/public/newtx/ntxsy7.vf
INPUT c:/texlive/2023/texmf-dist/fonts/tfm/public/newtx/txsys.tfm
INPUT c:/texlive/2023/texmf-dist/fonts/tfm/public/newtx/txex-bar.tfm
INPUT c:/texlive/2023/texmf-dist/fonts/vf/public/newtx/ntxexx.vf
INPUT c:/texlive/2023/texmf-dist/fonts/tfm/public/newtx/txexs.tfm
INPUT c:/texlive/2023/texmf-dist/fonts/vf/public/newtx/nxlmia.vf
INPUT c:/texlive/2023/texmf-dist/fonts/tfm/public/newtx/LibertineMathRM.tfm
INPUT c:/texlive/2023/texmf-dist/fonts/tfm/public/newtx/txmiaSTbb.tfm
INPUT c:/texlive/2023/texmf-dist/fonts/tfm/public/newtx/txmiaX.tfm
INPUT ./sample-franklin.png
INPUT sample-franklin.png
INPUT ./sample-franklin.png
INPUT ./sample-franklin.png
INPUT c:/texlive/2023/texmf-dist/fonts/tfm/public/inconsolata/t1-zi4b-4.tfm
OUTPUT comment.cut
INPUT ./comment.cut
INPUT comment.cut
INPUT ./comment.cut
INPUT comment.cut
INPUT ./sample-sigconf.bbl
INPUT sample-sigconf.bbl
INPUT ./sample-sigconf.bbl
INPUT sample-sigconf.bbl
INPUT c:/texlive/2023/texmf-dist/fonts/tfm/public/libertine/LinLibertineTI-tlf-t1.tfm
INPUT c:/texlive/2023/texmf-dist/fonts/tfm/public/libertine/LinLibertineT-tlf-t1.tfm
INPUT c:/texlive/2023/texmf-dist/tex/generic/stringenc/se-pdfdoc.def
INPUT c:/texlive/2023/texmf-dist/tex/generic/stringenc/se-pdfdoc.def
INPUT c:/texlive/2023/texmf-dist/tex/generic/stringenc/se-pdfdoc.def
INPUT c:/texlive/2023/texmf-dist/tex/generic/stringenc/se-pdfdoc.def
INPUT c:/texlive/2023/texmf-dist/tex/generic/stringenc/se-pdfdoc.def
INPUT c:/texlive/2023/texmf-dist/tex/generic/stringenc/se-pdfdoc.def
INPUT c:/texlive/2023/texmf-dist/tex/generic/stringenc/se-utf8.def
INPUT c:/texlive/2023/texmf-dist/tex/generic/stringenc/se-utf8.def
INPUT c:/texlive/2023/texmf-dist/tex/generic/stringenc/se-utf8.def
INPUT c:/texlive/2023/texmf-dist/tex/generic/stringenc/se-utf8.def
INPUT c:/texlive/2023/texmf-dist/tex/generic/stringenc/se-utf8.def
INPUT c:/texlive/2023/texmf-dist/tex/generic/stringenc/se-utf8.def
INPUT c:/texlive/2023/texmf-dist/fonts/vf/public/libertine/LinLibertineTI-tlf-t1.vf
INPUT c:/texlive/2023/texmf-dist/fonts/tfm/public/libertine/LinLibertineTI-tlf-t1--base.tfm
INPUT sample-sigconf.aux
INPUT ./sample-sigconf.out
INPUT ./sample-sigconf.out
INPUT c:/texlive/2023/texmf-dist/fonts/type1/public/inconsolata/Inconsolata-zi4b.pfb
INPUT c:/texlive/2023/texmf-dist/fonts/type1/public/inconsolata/Inconsolata-zi4r.pfb
INPUT c:/texlive/2023/texmf-dist/fonts/type1/public/newtx/LibertineMathMI.pfb
INPUT c:/texlive/2023/texmf-dist/fonts/type1/public/newtx/LibertineMathMI7.pfb
INPUT c:/texlive/2023/texmf-dist/fonts/type1/public/newtx/LibertineMathRM.pfb
INPUT c:/texlive/2023/texmf-dist/fonts/type1/public/libertine/LinBiolinumT.pfb
INPUT c:/texlive/2023/texmf-dist/fonts/type1/public/libertine/LinBiolinumTB.pfb
INPUT c:/texlive/2023/texmf-dist/fonts/type1/public/libertine/LinLibertineT.pfb
INPUT c:/texlive/2023/texmf-dist/fonts/type1/public/libertine/LinLibertineTB.pfb
INPUT c:/texlive/2023/texmf-dist/fonts/type1/public/libertine/LinLibertineTI.pfb
INPUT c:/texlive/2023/texmf-dist/fonts/type1/public/newtx/txexs.pfb
INPUT c:/texlive/2023/texmf-dist/fonts/type1/public/newtx/txmiaX.pfb
INPUT c:/texlive/2023/texmf-dist/fonts/type1/public/newtx/txsys.pfb
